v 20130925 2
C 40000 40000 0 0 0 title-A3.sym
C 41800 46500 1 0 0 EMBEDDED7segment-1-1.sym
[
T 43200 48750 8 10 0 1 0 0 1
refdes=D?
T 42000 48750 5 10 0 1 0 0 1
device=HDSP-C5A3
T 41900 50200 5 10 0 0 0 0 1
description=7-segment-display
T 41900 50000 5 10 0 0 0 0 1
numslots=0
T 41900 49800 5 10 0 0 0 0 1
footprint=none
B 42100 46500 1200 2200 3 0 0 0 -1 -1 0 -1 -1 -1 -1 -1
T 41900 49600 8 10 0 0 0 0 1
author=B. Stultiens
T 41900 49400 8 10 0 0 0 0 1
dist-license=GPL
T 41900 49200 8 10 0 0 0 0 1
use-license=unlimited
T 41900 49000 8 10 0 0 0 0 1
comment=Suggested library: unknown
L 42650 48200 42550 47700 3 20 0 0 -1 -1
L 42550 47600 42450 47100 3 20 0 0 -1 -1
L 42650 47600 42950 47600 3 20 0 0 -1 -1
L 42750 48200 43050 48200 3 20 0 0 -1 -1
L 43150 48200 43050 47700 3 20 0 0 -1 -1
L 43050 47600 42950 47100 3 20 0 0 -1 -1
L 42550 47100 42850 47100 3 20 0 0 -1 -1
V 43100 47150 50 3 20 0 0 -1 -1 0 -1 -1 -1 -1 -1
P 41800 48500 42100 48500 1 0 0
{
T 41800 48500 5 10 0 0 0 0 1
pintype=pas
T 42155 48495 5 10 1 1 0 0 1
pinlabel=A
T 42005 48545 5 10 1 1 0 6 1
pinnumber=7
T 41800 48500 5 10 0 0 0 0 1
pinseq=7
}
P 41800 48300 42100 48300 1 0 0
{
T 41800 48300 5 10 0 0 0 0 1
pintype=pas
T 42155 48295 5 10 1 1 0 0 1
pinlabel=B
T 42005 48345 5 10 1 1 0 6 1
pinnumber=6
T 41800 48300 5 10 0 0 0 0 1
pinseq=6
}
P 41800 48100 42100 48100 1 0 0
{
T 41800 48100 5 10 0 0 0 0 1
pintype=pas
T 42155 48095 5 10 1 1 0 0 1
pinlabel=C
T 42005 48145 5 10 1 1 0 6 1
pinnumber=4
T 41800 48100 5 10 0 0 0 0 1
pinseq=4
}
P 41800 47900 42100 47900 1 0 0
{
T 41800 47900 5 10 0 0 0 0 1
pintype=pas
T 42155 47895 5 10 1 1 0 0 1
pinlabel=D
T 42005 47945 5 10 1 1 0 6 1
pinnumber=2
T 41800 47900 5 10 0 0 0 0 1
pinseq=2
}
P 41800 47700 42100 47700 1 0 0
{
T 41800 47700 5 10 0 0 0 0 1
pintype=pas
T 42155 47695 5 10 1 1 0 0 1
pinlabel=E
T 42005 47745 5 10 1 1 0 6 1
pinnumber=1
T 41800 47700 5 10 0 0 0 0 1
pinseq=1
}
P 41800 47500 42100 47500 1 0 0
{
T 41800 47500 5 10 0 0 0 0 1
pintype=pas
T 42155 47495 5 10 1 1 0 0 1
pinlabel=F
T 42005 47545 5 10 1 1 0 6 1
pinnumber=9
T 41800 47500 5 10 0 0 0 0 1
pinseq=9
}
P 41800 47300 42100 47300 1 0 0
{
T 41800 47300 5 10 0 0 0 0 1
pintype=pas
T 42155 47295 5 10 1 1 0 0 1
pinlabel=G
T 42005 47345 5 10 1 1 0 6 1
pinnumber=10
T 41800 47300 5 10 0 0 0 0 1
pinseq=10
}
P 41800 47100 42100 47100 1 0 0
{
T 41800 47100 5 10 0 0 0 0 1
pintype=pas
T 42155 47095 5 10 1 1 0 0 1
pinlabel=DP
T 42005 47145 5 10 1 1 0 6 1
pinnumber=5
T 41800 47100 5 10 0 0 0 0 1
pinseq=5
}
P 41800 46900 42100 46900 1 0 0
{
T 41800 46900 5 10 0 0 0 0 1
pintype=pas
T 42155 46895 5 10 1 1 0 0 1
pinlabel=Com
T 42005 46945 5 10 1 1 0 6 1
pinnumber=3
T 41800 46900 5 10 0 0 0 0 1
pinseq=3
}
P 41800 46700 42100 46700 1 0 0
{
T 41800 46700 5 10 0 0 0 0 1
pintype=pas
T 42155 46695 5 10 1 1 0 0 1
pinlabel=Com
T 42005 46745 5 10 1 1 0 6 1
pinnumber=8
T 41800 46700 5 10 0 0 0 0 1
pinseq=8
}
]
{
T 41900 49800 5 10 0 0 0 0 1
footprint=HDSP-C5xx_BS_1
T 43200 48750 5 10 1 1 0 0 1
refdes=D3
T 42000 48750 5 10 1 1 0 0 1
device=HDSP-C5A3
}
N 41800 47100 41300 47100 4
N 41300 41100 41300 47100 4
N 41300 41900 41800 41900 4
N 41800 44500 41300 44500 4
N 41800 47300 41200 47300 4
N 41100 47500 41800 47500 4
N 41800 47700 41000 47700 4
N 41800 47900 40900 47900 4
N 40800 48100 41800 48100 4
N 41800 48300 40700 48300 4
N 41800 48500 40600 48500 4
N 41800 44700 41200 44700 4
N 41100 44900 41800 44900 4
N 41800 45100 41000 45100 4
N 41800 45300 40900 45300 4
N 40800 45500 41800 45500 4
N 41800 45700 40700 45700 4
N 41800 45900 40600 45900 4
N 41800 42100 41200 42100 4
N 41100 42300 41800 42300 4
N 41800 42500 41000 42500 4
N 41800 42700 40900 42700 4
N 40800 42900 41800 42900 4
N 41800 43100 40700 43100 4
N 41800 43300 40600 43300 4
N 41200 41000 41200 47300 4
N 41100 40900 41100 47500 4
N 41000 40800 41000 47700 4
N 40900 40700 40900 47900 4
N 40800 40600 40800 48100 4
N 40700 40500 40700 48300 4
N 40600 40400 40600 48500 4
N 44900 47100 44400 47100 4
N 44400 41100 44400 47100 4
N 44400 41900 44900 41900 4
N 44900 44500 44400 44500 4
N 44900 47300 44300 47300 4
N 44200 47500 44900 47500 4
N 44900 47700 44100 47700 4
N 44900 47900 44000 47900 4
N 43900 48100 44900 48100 4
N 44900 48300 43800 48300 4
N 44900 48500 43700 48500 4
N 44900 44700 44300 44700 4
N 44200 44900 44900 44900 4
N 44900 45100 44100 45100 4
N 44900 45300 44000 45300 4
N 43900 45500 44900 45500 4
N 44900 45700 43800 45700 4
N 44900 45900 43700 45900 4
N 44900 42100 44300 42100 4
N 44200 42300 44900 42300 4
N 44900 42500 44100 42500 4
N 44900 42700 44000 42700 4
N 43900 42900 44900 42900 4
N 44900 43100 43800 43100 4
N 44900 43300 43700 43300 4
N 44300 41000 44300 47300 4
N 44200 40900 44200 47500 4
N 44100 40800 44100 47700 4
N 44000 40700 44000 47900 4
N 43900 40600 43900 48100 4
N 43800 40500 43800 48300 4
N 43700 40400 43700 48500 4
N 41300 41100 46700 41100 4
N 46800 41000 41200 41000 4
N 41100 40900 46900 40900 4
N 47000 40800 41000 40800 4
N 40900 40700 47100 40700 4
N 40800 40600 47200 40600 4
N 40700 40500 47300 40500 4
N 40600 40400 47400 40400 4
C 54400 41700 1 0 1 EMBEDDEDATmega48_28.sym
[
T 51900 47050 8 10 0 1 0 0 1
refdes=U?
T 54000 47050 5 10 0 1 0 6 1
device=ATmega48
T 54000 47450 5 10 0 0 0 6 1
footprint=DIP28
P 51600 42000 51900 42000 1 0 0
{
T 51805 42045 5 8 1 1 0 6 1
pinnumber=13
T 51800 41950 5 8 0 1 0 8 1
pinseq=13
T 51955 41995 9 8 1 1 0 0 1
pinlabel=(AIN1) PD7
T 51950 42000 5 8 0 1 0 2 1
pintype=io
}
P 51600 42200 51900 42200 1 0 0
{
T 51805 42245 5 8 1 1 0 6 1
pinnumber=12
T 51800 42150 5 8 0 1 0 8 1
pinseq=12
T 51955 42195 9 8 1 1 0 0 1
pinlabel=(AIN0) PD6
T 51950 42200 5 8 0 1 0 2 1
pintype=io
}
P 51600 42400 51900 42400 1 0 0
{
T 51805 42445 5 8 1 1 0 6 1
pinnumber=11
T 51800 42350 5 8 0 1 0 8 1
pinseq=11
T 51955 42395 9 8 1 1 0 0 1
pinlabel=(T1) PD5
T 51950 42400 5 8 0 1 0 2 1
pintype=io
}
P 51600 42600 51900 42600 1 0 0
{
T 51805 42645 5 8 1 1 0 6 1
pinnumber=6
T 51800 42550 5 8 0 1 0 8 1
pinseq=6
T 51955 42595 9 8 1 1 0 0 1
pinlabel=(T0) PD4
T 51950 42600 5 8 0 1 0 2 1
pintype=io
}
P 51600 42800 51900 42800 1 0 0
{
T 51805 42845 5 8 1 1 0 6 1
pinnumber=5
T 51800 42750 5 8 0 1 0 8 1
pinseq=5
T 51955 42795 9 8 1 1 0 0 1
pinlabel=(INT1) PD3
T 51950 42800 5 8 0 1 0 2 1
pintype=io
}
P 51600 43000 51900 43000 1 0 0
{
T 51805 43045 5 8 1 1 0 6 1
pinnumber=4
T 51800 42950 5 8 0 1 0 8 1
pinseq=4
T 51955 42995 9 8 1 1 0 0 1
pinlabel=(INT0) PD2
T 51950 43000 5 8 0 1 0 2 1
pintype=io
}
P 51600 43200 51900 43200 1 0 0
{
T 51805 43245 5 8 1 1 0 6 1
pinnumber=3
T 51800 43150 5 8 0 1 0 8 1
pinseq=3
T 51955 43195 9 8 1 1 0 0 1
pinlabel=(TXD) PD1
T 51950 43200 5 8 0 1 0 2 1
pintype=io
}
P 51600 43400 51900 43400 1 0 0
{
T 51805 43445 5 8 1 1 0 6 1
pinnumber=2
T 51800 43350 5 8 0 1 0 8 1
pinseq=2
T 51955 43395 9 8 1 1 0 0 1
pinlabel=(RXD) PD0
T 51950 43400 5 8 0 1 0 2 1
pintype=io
}
P 51600 45400 51900 45400 1 0 0
{
T 51805 45445 5 8 1 1 0 6 1
pinnumber=10
T 51800 45350 5 8 0 1 0 8 1
pinseq=10
T 51955 45395 9 8 1 1 0 0 1
pinlabel=(XTAL2) PB7
T 51950 45400 5 8 0 1 0 2 1
pintype=io
}
P 51600 45600 51900 45600 1 0 0
{
T 51805 45645 5 8 1 1 0 6 1
pinnumber=9
T 51800 45550 5 8 0 1 0 8 1
pinseq=9
T 51955 45595 9 8 1 1 0 0 1
pinlabel=(XTAL1) PB6
T 51950 45600 5 8 0 1 0 2 1
pintype=io
}
P 51600 45800 51900 45800 1 0 0
{
T 51805 45845 5 8 1 1 0 6 1
pinnumber=19
T 51800 45750 5 8 0 1 0 8 1
pinseq=19
T 51955 45795 9 8 1 1 0 0 1
pinlabel=(SCK) PB5
T 51950 45800 5 8 0 1 0 2 1
pintype=io
}
P 51600 46000 51900 46000 1 0 0
{
T 51805 46045 5 8 1 1 0 6 1
pinnumber=18
T 51800 45950 5 8 0 1 0 8 1
pinseq=18
T 51955 45995 9 8 1 1 0 0 1
pinlabel=(MISO) PB4
T 51950 46000 5 8 0 1 0 2 1
pintype=io
}
P 51600 46200 51900 46200 1 0 0
{
T 51805 46245 5 8 1 1 0 6 1
pinnumber=17
T 51800 46150 5 8 0 1 0 8 1
pinseq=17
T 51955 46195 9 8 1 1 0 0 1
pinlabel=(MOSI) PB3
T 51950 46200 5 8 0 1 0 2 1
pintype=io
}
P 51600 46400 51900 46400 1 0 0
{
T 51805 46445 5 8 1 1 0 6 1
pinnumber=16
T 51800 46350 5 8 0 1 0 8 1
pinseq=16
T 51955 46395 9 8 1 1 0 0 1
pinlabel=(SS/OC1B) PB2
T 51950 46400 5 8 0 1 0 2 1
pintype=io
}
P 51600 46600 51900 46600 1 0 0
{
T 51805 46645 5 8 1 1 0 6 1
pinnumber=15
T 51800 46550 5 8 0 1 0 8 1
pinseq=15
T 51955 46595 9 8 1 1 0 0 1
pinlabel=(OC1A) PB1
T 51950 46600 5 8 0 1 0 2 1
pintype=io
}
P 51600 46800 51900 46800 1 0 0
{
T 51805 46845 5 8 1 1 0 6 1
pinnumber=14
T 51800 46750 5 8 0 1 0 8 1
pinseq=14
T 51955 46795 9 8 1 1 0 0 1
pinlabel=(ICP1) PB0
T 51950 46800 5 8 0 1 0 2 1
pintype=io
}
P 51600 43800 51900 43800 1 0 0
{
T 51800 43850 5 8 1 1 0 6 1
pinnumber=1
T 51600 43750 5 8 0 1 0 8 1
pinseq=1
T 51950 43800 9 8 1 1 0 0 1
pinlabel=(\_RESET\_) PC6
T 51950 43800 5 8 0 1 0 2 1
pintype=io
}
P 51600 44000 51900 44000 1 0 0
{
T 51800 44050 5 8 1 1 0 6 1
pinnumber=28
T 51600 43950 5 8 0 1 0 8 1
pinseq=28
T 51950 44000 9 8 1 1 0 0 1
pinlabel=(ADC5/SCL) PC5
T 51950 44000 5 8 0 1 0 2 1
pintype=io
}
P 51600 44200 51900 44200 1 0 0
{
T 51800 44250 5 8 1 1 0 6 1
pinnumber=27
T 51600 44150 5 8 0 1 0 8 1
pinseq=27
T 51950 44200 9 8 1 1 0 0 1
pinlabel=(ADC4/SDA) PC4
T 51950 44200 5 8 0 1 0 2 1
pintype=io
}
P 51600 44400 51900 44400 1 0 0
{
T 51800 44450 5 8 1 1 0 6 1
pinnumber=26
T 51600 44350 5 8 0 1 0 8 1
pinseq=26
T 51950 44400 9 8 1 1 0 0 1
pinlabel=(ADC3) PC3
T 51950 44400 5 8 0 1 0 2 1
pintype=io
}
P 51600 44600 51900 44600 1 0 0
{
T 51800 44650 5 8 1 1 0 6 1
pinnumber=25
T 51600 44550 5 8 0 1 0 8 1
pinseq=25
T 51950 44600 9 8 1 1 0 0 1
pinlabel=(ADC2) PC2
T 51950 44600 5 8 0 1 0 2 1
pintype=io
}
P 51600 44800 51900 44800 1 0 0
{
T 51800 44850 5 8 1 1 0 6 1
pinnumber=24
T 51600 44750 5 8 0 1 0 8 1
pinseq=24
T 51950 44800 9 8 1 1 0 0 1
pinlabel=(ADC1) PC1
T 51950 44800 5 8 0 1 0 2 1
pintype=io
}
P 51600 45000 51900 45000 1 0 0
{
T 51800 45050 5 8 1 1 0 6 1
pinnumber=23
T 51600 44950 5 8 0 1 0 8 1
pinseq=23
T 51950 45000 9 8 1 1 0 0 1
pinlabel=(ADC0) PC0
T 51950 45000 5 8 0 1 0 2 1
pintype=io
}
B 51900 41800 2100 5200 3 0 0 0 -1 -1 0 -1 -1 -1 -1 -1
T 54000 47750 5 10 0 0 0 6 1
description=8-bit RISC micro controller (Atmel)
T 54000 47950 5 10 0 0 0 6 1
numslots=0
T 54000 48150 5 10 0 0 0 6 1
author=Bertho Stultiens <bertho@vagrearg.org>
P 54300 43000 54000 43000 1 0 0
{
T 54095 43045 5 8 1 1 0 0 1
pinnumber=20
T 54300 42950 5 8 0 1 0 2 1
pinseq=20
T 53945 42995 9 8 1 1 0 6 1
pinlabel=AVcc
T 53950 43000 5 8 0 1 0 8 1
pintype=pwr
}
P 54300 42000 54000 42000 1 0 0
{
T 54095 42045 5 8 1 1 0 0 1
pinnumber=22
T 54300 41950 5 8 0 1 0 2 1
pinseq=22
T 53945 41995 9 8 1 1 0 6 1
pinlabel=GND
T 53950 42000 5 8 0 1 0 8 1
pintype=pwr
}
P 54300 42200 54000 42200 1 0 0
{
T 54095 42245 5 8 1 1 0 0 1
pinnumber=8
T 54300 42150 5 8 0 1 0 2 1
pinseq=8
T 53945 42195 9 8 1 1 0 6 1
pinlabel=GND
T 53950 42200 5 8 0 1 0 8 1
pintype=pwr
}
P 54300 42600 54000 42600 1 0 0
{
T 54095 42645 5 8 1 1 0 0 1
pinnumber=7
T 54300 42550 5 8 0 1 0 2 1
pinseq=7
T 53945 42595 9 8 1 1 0 6 1
pinlabel=Vcc
T 53950 42600 5 8 0 1 0 8 1
pintype=pwr
}
P 54300 45000 54000 45000 1 0 0
{
T 54095 45045 5 8 1 1 0 0 1
pinnumber=21
T 54300 44950 5 8 0 1 0 2 1
pinseq=21
T 53945 44995 9 8 1 1 0 6 1
pinlabel=ARef
T 53950 45000 5 8 0 1 0 8 1
pintype=io
}
]
{
T 51900 47050 5 10 1 1 0 0 1
refdes=U1
T 54000 47050 5 10 1 1 0 6 1
device=ATmega88PA
T 54000 47450 5 10 0 0 0 6 1
footprint=DIP28N
}
C 48800 45400 1 0 0 EMBEDDEDswitch-no-1.sym
[
T 49200 45700 8 10 0 1 0 0 1
refdes=S?
P 48800 45400 48950 45400 1 0 0
{
T 48850 45450 5 8 0 1 0 0 1
pinnumber=1
T 48850 45450 5 8 0 0 0 0 1
pinseq=1
T 48850 45450 5 8 0 1 0 0 1
pinlabel=1
T 48850 45450 5 8 0 1 0 0 1
pintype=pas
}
P 49650 45400 49800 45400 1 0 1
{
T 49700 45450 5 8 0 1 0 0 1
pinnumber=2
T 49700 45450 5 8 0 0 0 0 1
pinseq=2
T 49700 45450 5 8 0 1 0 0 1
pinlabel=2
T 49700 45450 5 8 0 1 0 0 1
pintype=pas
}
L 48950 45400 49125 45400 3 0 0 0 -1 -1
L 49650 45400 49475 45400 3 0 0 0 -1 -1
L 49125 45400 49475 45475 3 0 0 0 -1 -1
V 49139 45400 25 3 0 0 0 -1 -1 0 -1 -1 -1 -1 -1
V 49462 45400 25 3 0 0 0 -1 -1 0 -1 -1 -1 -1 -1
T 49200 46000 8 10 0 0 0 0 1
device=SWITCH_PUSHBUTTON_NO
]
{
T 49100 45500 5 10 1 1 0 0 1
refdes=S6
T 49200 46000 5 10 0 0 0 0 1
device=SWITCH_PUSHBUTTON_NO
T 48800 45400 5 10 0 0 0 0 1
footprint=TYCO_FSM
}
C 43100 50200 1 0 1 EMBEDDEDbuzzer-1.sym
[
L 42300 51000 42300 50800 3 0 0 0 -1 -1
A 42700 50800 100 90 180 3 0 0 0 -1 -1
A 42700 51000 100 90 180 3 0 0 0 -1 -1
P 42700 51100 43000 51100 1 0 1
{
T 43650 51150 5 10 0 1 0 6 1
pinnumber=1
T 43650 51150 5 10 0 0 0 6 1
pinseq=1
T 43650 51150 5 10 0 1 0 6 1
pinlabel=1
T 43650 51150 5 10 0 1 0 6 1
pintype=pas
}
P 42700 50700 43000 50700 1 0 1
{
T 43700 50750 5 10 0 1 0 6 1
pinnumber=2
T 43700 50750 5 10 0 0 0 6 1
pinseq=2
T 43700 50750 5 10 0 1 0 6 1
pinlabel=2
T 43700 50750 5 10 0 1 0 6 1
pintype=pas
}
B 42200 50600 600 600 3 0 0 0 -1 -1 0 -1 -1 -1 -1 -1
T 42500 50550 5 8 0 1 0 5 1
device=BUZZER
L 42200 51000 42300 51000 3 0 0 0 -1 -1
L 42300 50800 42200 50800 3 0 0 0 -1 -1
T 42800 51250 8 10 0 1 0 6 1
refdes=PZ?
T 42600 51000 9 10 1 0 0 6 1
+
]
{
T 41900 51350 5 8 1 1 0 5 1
device=BUZZER
T 42800 51250 5 10 1 1 0 6 1
refdes=BZ1
T 43100 50200 5 10 0 0 0 0 1
footprint=buzzer_12x6p5
T 41000 51000 5 10 1 1 0 0 1
value=EMB501-RO
}
N 41800 41500 41400 41500 4
N 41400 41500 41400 50500 4
N 41800 41700 41400 41700 4
N 41800 44100 41500 44100 4
N 41500 44100 41500 50300 4
N 41800 44300 41500 44300 4
N 41800 46700 41600 46700 4
N 41600 46700 41600 50100 4
N 41800 46900 41600 46900 4
N 41600 50100 44900 50100 4
N 44900 41500 44500 41500 4
N 44900 41700 44500 41700 4
N 44500 41500 44500 49900 4
N 44900 44100 44600 44100 4
N 44900 44300 44600 44300 4
N 44600 44100 44600 49700 4
N 44900 46700 44700 46700 4
N 44900 46900 44700 46900 4
N 44700 46700 44700 49500 4
N 44700 49500 44900 49500 4
N 44600 49700 44900 49700 4
N 44500 49900 44900 49900 4
N 41500 50300 44900 50300 4
N 41400 50500 44900 50500 4
N 44900 50700 44500 50700 4
C 42900 51100 1 0 0 EMBEDDEDvcc-1.sym
[
P 43100 51100 43100 51300 1 0 0
{
T 43150 51150 5 6 0 1 0 0 1
pinnumber=1
T 43150 51150 5 6 0 0 0 0 1
pinseq=1
T 43150 51150 5 6 0 1 0 0 1
pinlabel=1
T 43150 51150 5 6 0 1 0 0 1
pintype=pwr
}
L 42950 51300 43250 51300 3 0 0 0 -1 -1
T 42975 51350 9 8 1 0 0 0 1
Vcc
T 43350 51300 8 10 0 0 0 0 1
net=Vcc:1
]
N 43000 51100 43100 51100 4
N 46900 50500 48200 50500 4
N 46900 50300 48100 50300 4
N 46900 50100 48000 50100 4
N 46900 49900 47900 49900 4
N 46900 49700 47800 49700 4
N 47700 49500 46900 49500 4
C 47700 42400 1 0 0 EMBEDDEDresistor-2.sym
[
P 48600 42500 48450 42500 1 0 0
{
T 48500 42550 5 8 0 1 0 0 1
pinnumber=2
T 48500 42550 5 8 0 0 0 0 1
pinseq=2
T 48500 42550 5 8 0 1 0 0 1
pinlabel=2
T 48500 42550 5 8 0 1 0 0 1
pintype=pas
}
P 47700 42500 47850 42500 1 0 0
{
T 47800 42550 5 8 0 1 0 0 1
pinnumber=1
T 47800 42550 5 8 0 0 0 0 1
pinseq=1
T 47800 42550 5 8 0 1 0 0 1
pinlabel=1
T 47800 42550 5 8 0 1 0 0 1
pintype=pas
}
B 47850 42400 600 200 3 0 0 0 -1 -1 0 -1 -1 -1 -1 -1
T 48100 42750 5 10 0 0 0 0 1
device=RESISTOR
T 47900 42700 8 10 0 1 0 0 1
refdes=R?
]
{
T 48100 42750 5 10 0 0 0 0 1
device=RESISTOR
T 47800 42550 5 10 1 1 0 6 1
refdes=R5
T 48500 42550 5 10 1 1 0 0 1
value=120
T 47700 42400 5 10 0 0 0 0 1
footprint=r250
}
C 47700 42100 1 0 0 EMBEDDEDresistor-2.sym
[
P 48600 42200 48450 42200 1 0 0
{
T 48500 42250 5 8 0 1 0 0 1
pinnumber=2
T 48500 42250 5 8 0 0 0 0 1
pinseq=2
T 48500 42250 5 8 0 1 0 0 1
pinlabel=2
T 48500 42250 5 8 0 1 0 0 1
pintype=pas
}
P 47700 42200 47850 42200 1 0 0
{
T 47800 42250 5 8 0 1 0 0 1
pinnumber=1
T 47800 42250 5 8 0 0 0 0 1
pinseq=1
T 47800 42250 5 8 0 1 0 0 1
pinlabel=1
T 47800 42250 5 8 0 1 0 0 1
pintype=pas
}
B 47850 42100 600 200 3 0 0 0 -1 -1 0 -1 -1 -1 -1 -1
T 48100 42450 5 10 0 0 0 0 1
device=RESISTOR
T 47900 42400 8 10 0 1 0 0 1
refdes=R?
]
{
T 48100 42450 5 10 0 0 0 0 1
device=RESISTOR
T 47800 42250 5 10 1 1 0 6 1
refdes=R6
T 48500 42250 5 10 1 1 0 0 1
value=120
T 47700 42100 5 10 0 0 0 0 1
footprint=r250
}
C 47700 43600 1 0 0 EMBEDDEDresistor-2.sym
[
P 48600 43700 48450 43700 1 0 0
{
T 48500 43750 5 8 0 1 0 0 1
pinnumber=2
T 48500 43750 5 8 0 0 0 0 1
pinseq=2
T 48500 43750 5 8 0 1 0 0 1
pinlabel=2
T 48500 43750 5 8 0 1 0 0 1
pintype=pas
}
P 47700 43700 47850 43700 1 0 0
{
T 47800 43750 5 8 0 1 0 0 1
pinnumber=1
T 47800 43750 5 8 0 0 0 0 1
pinseq=1
T 47800 43750 5 8 0 1 0 0 1
pinlabel=1
T 47800 43750 5 8 0 1 0 0 1
pintype=pas
}
B 47850 43600 600 200 3 0 0 0 -1 -1 0 -1 -1 -1 -1 -1
T 48100 43950 5 10 0 0 0 0 1
device=RESISTOR
T 47900 43900 8 10 0 1 0 0 1
refdes=R?
]
{
T 48100 43950 5 10 0 0 0 0 1
device=RESISTOR
T 47800 43750 5 10 1 1 0 6 1
refdes=R1
T 48500 43750 5 10 1 1 0 0 1
value=120
T 47700 43600 5 10 0 0 0 0 1
footprint=r250
}
C 47700 43300 1 0 0 EMBEDDEDresistor-2.sym
[
P 48600 43400 48450 43400 1 0 0
{
T 48500 43450 5 8 0 1 0 0 1
pinnumber=2
T 48500 43450 5 8 0 0 0 0 1
pinseq=2
T 48500 43450 5 8 0 1 0 0 1
pinlabel=2
T 48500 43450 5 8 0 1 0 0 1
pintype=pas
}
P 47700 43400 47850 43400 1 0 0
{
T 47800 43450 5 8 0 1 0 0 1
pinnumber=1
T 47800 43450 5 8 0 0 0 0 1
pinseq=1
T 47800 43450 5 8 0 1 0 0 1
pinlabel=1
T 47800 43450 5 8 0 1 0 0 1
pintype=pas
}
B 47850 43300 600 200 3 0 0 0 -1 -1 0 -1 -1 -1 -1 -1
T 48100 43650 5 10 0 0 0 0 1
device=RESISTOR
T 47900 43600 8 10 0 1 0 0 1
refdes=R?
]
{
T 48100 43650 5 10 0 0 0 0 1
device=RESISTOR
T 47800 43450 5 10 1 1 0 6 1
refdes=R2
T 48500 43450 5 10 1 1 0 0 1
value=120
T 47700 43300 5 10 0 0 0 0 1
footprint=r250
}
C 47700 43000 1 0 0 EMBEDDEDresistor-2.sym
[
P 48600 43100 48450 43100 1 0 0
{
T 48500 43150 5 8 0 1 0 0 1
pinnumber=2
T 48500 43150 5 8 0 0 0 0 1
pinseq=2
T 48500 43150 5 8 0 1 0 0 1
pinlabel=2
T 48500 43150 5 8 0 1 0 0 1
pintype=pas
}
P 47700 43100 47850 43100 1 0 0
{
T 47800 43150 5 8 0 1 0 0 1
pinnumber=1
T 47800 43150 5 8 0 0 0 0 1
pinseq=1
T 47800 43150 5 8 0 1 0 0 1
pinlabel=1
T 47800 43150 5 8 0 1 0 0 1
pintype=pas
}
B 47850 43000 600 200 3 0 0 0 -1 -1 0 -1 -1 -1 -1 -1
T 48100 43350 5 10 0 0 0 0 1
device=RESISTOR
T 47900 43300 8 10 0 1 0 0 1
refdes=R?
]
{
T 48100 43350 5 10 0 0 0 0 1
device=RESISTOR
T 47800 43150 5 10 1 1 0 6 1
refdes=R3
T 48500 43150 5 10 1 1 0 0 1
value=120
T 47700 43000 5 10 0 0 0 0 1
footprint=r250
}
C 47700 42700 1 0 0 EMBEDDEDresistor-2.sym
[
P 48600 42800 48450 42800 1 0 0
{
T 48500 42850 5 8 0 1 0 0 1
pinnumber=2
T 48500 42850 5 8 0 0 0 0 1
pinseq=2
T 48500 42850 5 8 0 1 0 0 1
pinlabel=2
T 48500 42850 5 8 0 1 0 0 1
pintype=pas
}
P 47700 42800 47850 42800 1 0 0
{
T 47800 42850 5 8 0 1 0 0 1
pinnumber=1
T 47800 42850 5 8 0 0 0 0 1
pinseq=1
T 47800 42850 5 8 0 1 0 0 1
pinlabel=1
T 47800 42850 5 8 0 1 0 0 1
pintype=pas
}
B 47850 42700 600 200 3 0 0 0 -1 -1 0 -1 -1 -1 -1 -1
T 48100 43050 5 10 0 0 0 0 1
device=RESISTOR
T 47900 43000 8 10 0 1 0 0 1
refdes=R?
]
{
T 48100 43050 5 10 0 0 0 0 1
device=RESISTOR
T 47800 42850 5 10 1 1 0 6 1
refdes=R4
T 48500 42850 5 10 1 1 0 0 1
value=120
T 47700 42700 5 10 0 0 0 0 1
footprint=r250
}
N 47700 43700 46700 43700 4
N 46700 43700 46700 41100 4
N 47700 43400 46800 43400 4
N 46800 43400 46800 41000 4
N 47700 43100 46900 43100 4
N 46900 43100 46900 40900 4
N 47700 42800 47000 42800 4
N 47000 42800 47000 40800 4
N 47700 42500 47100 42500 4
N 47100 42500 47100 40700 4
N 47700 42200 47200 42200 4
N 47200 42200 47200 40600 4
N 47400 40400 47400 41600 4
C 47700 41800 1 0 0 EMBEDDEDresistor-2.sym
[
P 48600 41900 48450 41900 1 0 0
{
T 48500 41950 5 8 0 1 0 0 1
pinnumber=2
T 48500 41950 5 8 0 0 0 0 1
pinseq=2
T 48500 41950 5 8 0 1 0 0 1
pinlabel=2
T 48500 41950 5 8 0 1 0 0 1
pintype=pas
}
P 47700 41900 47850 41900 1 0 0
{
T 47800 41950 5 8 0 1 0 0 1
pinnumber=1
T 47800 41950 5 8 0 0 0 0 1
pinseq=1
T 47800 41950 5 8 0 1 0 0 1
pinlabel=1
T 47800 41950 5 8 0 1 0 0 1
pintype=pas
}
B 47850 41800 600 200 3 0 0 0 -1 -1 0 -1 -1 -1 -1 -1
T 48100 42150 5 10 0 0 0 0 1
device=RESISTOR
T 47900 42100 8 10 0 1 0 0 1
refdes=R?
]
{
T 48100 42150 5 10 0 0 0 0 1
device=RESISTOR
T 47800 41950 5 10 1 1 0 6 1
refdes=R7
T 48500 41950 5 10 1 1 0 0 1
value=120
T 47700 41800 5 10 0 0 0 0 1
footprint=r250
}
C 47700 41500 1 0 0 EMBEDDEDresistor-2.sym
[
P 48600 41600 48450 41600 1 0 0
{
T 48500 41650 5 8 0 1 0 0 1
pinnumber=2
T 48500 41650 5 8 0 0 0 0 1
pinseq=2
T 48500 41650 5 8 0 1 0 0 1
pinlabel=2
T 48500 41650 5 8 0 1 0 0 1
pintype=pas
}
P 47700 41600 47850 41600 1 0 0
{
T 47800 41650 5 8 0 1 0 0 1
pinnumber=1
T 47800 41650 5 8 0 0 0 0 1
pinseq=1
T 47800 41650 5 8 0 1 0 0 1
pinlabel=1
T 47800 41650 5 8 0 1 0 0 1
pintype=pas
}
B 47850 41500 600 200 3 0 0 0 -1 -1 0 -1 -1 -1 -1 -1
T 48100 41850 5 10 0 0 0 0 1
device=RESISTOR
T 47900 41800 8 10 0 1 0 0 1
refdes=R?
]
{
T 48100 41850 5 10 0 0 0 0 1
device=RESISTOR
T 47800 41650 5 10 1 1 0 6 1
refdes=R8
T 48500 41650 5 10 1 1 0 0 1
value=120
T 47700 41500 5 10 0 0 0 0 1
footprint=r250
}
N 47700 41900 47300 41900 4
N 47300 41900 47300 40500 4
N 47700 41600 47400 41600 4
C 54400 41600 1 0 0 EMBEDDEDgnd-1.sym
[
P 54500 41700 54500 41900 1 0 1
{
T 54558 41761 5 4 0 1 0 0 1
pinnumber=1
T 54558 41761 5 4 0 0 0 0 1
pinseq=1
T 54558 41761 5 4 0 1 0 0 1
pinlabel=1
T 54558 41761 5 4 0 1 0 0 1
pintype=pwr
}
L 54400 41700 54600 41700 3 0 0 0 -1 -1
L 54455 41650 54545 41650 3 0 0 0 -1 -1
L 54480 41610 54520 41610 3 0 0 0 -1 -1
T 54700 41650 8 10 0 0 0 0 1
net=GND:1
]
C 54300 43200 1 0 0 EMBEDDEDvcc-1.sym
[
P 54500 43200 54500 43400 1 0 0
{
T 54550 43250 5 6 0 1 0 0 1
pinnumber=1
T 54550 43250 5 6 0 0 0 0 1
pinseq=1
T 54550 43250 5 6 0 1 0 0 1
pinlabel=1
T 54550 43250 5 6 0 1 0 0 1
pintype=pwr
}
L 54350 43400 54650 43400 3 0 0 0 -1 -1
T 54375 43450 9 8 1 0 0 0 1
Vcc
T 54750 43400 8 10 0 0 0 0 1
net=Vcc:1
]
N 54500 42600 54500 43200 4
N 54500 43000 54300 43000 4
N 54300 42600 54500 42600 4
N 54300 42200 56100 42200 4
N 54500 42200 54500 41900 4
N 54300 42000 54500 42000 4
N 54300 45000 54500 45000 4
C 54700 43100 1 270 0 EMBEDDEDcapacitor-1.sym
[
P 54900 43100 54900 42900 1 0 0
{
T 54950 42950 5 8 0 1 270 6 1
pinnumber=1
T 54850 42950 5 8 0 1 270 8 1
pinseq=1
T 54900 42900 9 8 0 1 270 0 1
pinlabel=1
T 54900 42900 5 8 0 1 270 2 1
pintype=pas
}
P 54900 42200 54900 42400 1 0 0
{
T 54950 42350 5 8 0 1 270 0 1
pinnumber=2
T 54850 42350 5 8 0 1 270 2 1
pinseq=2
T 54900 42400 9 8 0 1 270 6 1
pinlabel=2
T 54900 42400 5 8 0 1 270 8 1
pintype=pas
}
L 55100 42700 54700 42700 3 0 0 0 -1 -1
L 55100 42600 54700 42600 3 0 0 0 -1 -1
L 54900 42400 54900 42600 3 0 0 0 -1 -1
L 54900 42700 54900 42900 3 0 0 0 -1 -1
T 55400 42900 5 10 0 0 270 0 1
device=CAPACITOR
T 55200 42900 8 10 0 1 270 0 1
refdes=C?
T 56000 42900 5 10 0 0 270 0 1
description=capacitor
T 55800 42900 5 10 0 0 270 0 1
numslots=0
T 55600 42900 5 10 0 0 270 0 1
symversion=0.1
]
{
T 55400 42900 5 10 0 0 270 0 1
device=CAPACITOR
T 54950 42750 5 10 1 1 0 0 1
refdes=C2
T 55600 42900 5 10 0 0 270 0 1
symversion=0.1
T 54700 43100 5 10 0 0 0 0 1
footprint=c100
T 54950 42550 5 10 1 1 0 2 1
value=100n
}
C 56300 43100 1 90 1 EMBEDDEDcapacitor-4.sym
[
P 56100 43100 56100 42900 1 0 0
{
T 56050 42950 5 8 1 1 270 8 1
pinnumber=1
T 56150 42950 5 8 0 1 270 6 1
pinseq=1
T 56100 42900 9 8 0 1 270 2 1
pinlabel=+
T 56100 42900 5 8 0 1 270 0 1
pintype=pas
}
P 56100 42200 56100 42400 1 0 0
{
T 56050 42350 5 8 1 1 270 2 1
pinnumber=2
T 56150 42350 5 8 0 1 270 0 1
pinseq=2
T 56100 42400 9 8 0 1 270 8 1
pinlabel=-
T 56100 42400 5 8 0 1 270 6 1
pintype=pas
}
L 55900 42550 56300 42550 3 0 0 0 -1 -1
L 56100 42400 56100 42550 3 0 0 0 -1 -1
L 56100 42750 56100 42900 3 0 0 0 -1 -1
L 55900 42861 56000 42861 3 0 0 0 -1 -1
L 55951 42810 55951 42910 3 0 0 0 -1 -1
B 55900 42650 400 100 3 0 0 0 -1 -1 0 -1 -1 -1 -1 -1
T 55200 42900 5 10 0 0 270 2 1
device=POLARIZED_CAPACITOR
T 55800 42900 8 10 0 1 270 2 1
refdes=C?
T 55000 42900 5 10 0 0 270 2 1
description=polarized capacitor
T 55400 42900 5 10 0 0 270 2 1
numslots=0
T 55600 42900 5 10 0 0 270 2 1
symversion=0.1
]
{
T 55200 42900 5 10 0 0 270 2 1
device=POLARIZED_CAPACITOR
T 56150 42800 5 10 1 1 180 8 1
refdes=C4
T 55600 42900 5 10 0 0 270 2 1
symversion=0.1
T 56150 42500 5 10 1 1 0 2 1
value=10u
T 56300 43100 5 10 0 1 0 0 1
footprint=cap_5x11_2.5
}
N 56100 43100 54500 43100 4
N 51600 43400 49500 43400 4
N 49500 43400 49500 43700 4
N 49500 43700 48600 43700 4
N 51600 43200 49400 43200 4
N 49400 43200 49400 43400 4
N 49400 43400 48600 43400 4
N 51600 43000 49300 43000 4
N 49300 43000 49300 43100 4
N 49300 43100 48600 43100 4
N 48600 42800 51600 42800 4
N 49300 42600 51600 42600 4
N 51600 42400 49400 42400 4
N 49400 42400 49400 42200 4
N 49400 42200 48600 42200 4
N 51600 42200 49500 42200 4
N 49500 42200 49500 41900 4
N 49500 41900 48600 41900 4
N 51600 42000 49600 42000 4
N 49600 42000 49600 41600 4
N 49600 41600 48600 41600 4
N 51600 44000 47700 44000 4
N 47700 44000 47700 49500 4
N 51600 44200 47800 44200 4
N 47800 44200 47800 49700 4
N 51600 44400 47900 44400 4
N 47900 44400 47900 49900 4
N 51600 44600 48000 44600 4
N 48000 44600 48000 50100 4
N 51600 44800 48100 44800 4
N 48100 44800 48100 50300 4
N 51600 45000 48200 45000 4
N 48200 45000 48200 50500 4
C 43600 50600 1 0 0 EMBEDDEDresistor-2.sym
[
P 44500 50700 44350 50700 1 0 0
{
T 44400 50750 5 8 0 1 0 0 1
pinnumber=2
T 44400 50750 5 8 0 0 0 0 1
pinseq=2
T 44400 50750 5 8 0 1 0 0 1
pinlabel=2
T 44400 50750 5 8 0 1 0 0 1
pintype=pas
}
P 43600 50700 43750 50700 1 0 0
{
T 43700 50750 5 8 0 1 0 0 1
pinnumber=1
T 43700 50750 5 8 0 0 0 0 1
pinseq=1
T 43700 50750 5 8 0 1 0 0 1
pinlabel=1
T 43700 50750 5 8 0 1 0 0 1
pintype=pas
}
B 43750 50600 600 200 3 0 0 0 -1 -1 0 -1 -1 -1 -1 -1
T 44000 50950 5 10 0 0 0 0 1
device=RESISTOR
T 43800 50900 8 10 0 1 0 0 1
refdes=R?
]
{
T 44000 50950 5 10 0 0 0 0 1
device=RESISTOR
T 43700 50750 5 10 1 1 0 6 1
refdes=R9
T 44400 50750 5 10 1 1 0 0 1
value=1k
T 43600 50600 5 10 0 0 0 0 1
footprint=r250
}
N 43600 50700 43000 50700 4
C 48800 45700 1 0 0 EMBEDDEDswitch-no-1.sym
[
P 48800 45700 48950 45700 1 0 0
{
T 48850 45750 5 8 0 1 0 0 1
pinnumber=1
T 48850 45750 5 8 0 0 0 0 1
pinseq=1
T 48850 45750 5 8 0 1 0 0 1
pinlabel=1
T 48850 45750 5 8 0 1 0 0 1
pintype=pas
}
P 49650 45700 49800 45700 1 0 1
{
T 49700 45750 5 8 0 1 0 0 1
pinnumber=2
T 49700 45750 5 8 0 0 0 0 1
pinseq=2
T 49700 45750 5 8 0 1 0 0 1
pinlabel=2
T 49700 45750 5 8 0 1 0 0 1
pintype=pas
}
L 48950 45700 49125 45700 3 0 0 0 -1 -1
L 49650 45700 49475 45700 3 0 0 0 -1 -1
L 49125 45700 49475 45775 3 0 0 0 -1 -1
V 49139 45700 25 3 0 0 0 -1 -1 0 -1 -1 -1 -1 -1
V 49462 45700 25 3 0 0 0 -1 -1 0 -1 -1 -1 -1 -1
T 49200 46000 8 10 0 1 0 0 1
refdes=S?
T 49200 46300 8 10 0 0 0 0 1
device=SWITCH_PUSHBUTTON_NO
]
{
T 49100 45800 5 10 1 1 0 0 1
refdes=S5
T 49200 46300 5 10 0 0 0 0 1
device=SWITCH_PUSHBUTTON_NO
T 48800 45700 5 10 0 0 0 0 1
footprint=TYCO_FSM
}
C 48800 46000 1 0 0 EMBEDDEDswitch-no-1.sym
[
P 48800 46000 48950 46000 1 0 0
{
T 48850 46050 5 8 0 1 0 0 1
pinnumber=1
T 48850 46050 5 8 0 0 0 0 1
pinseq=1
T 48850 46050 5 8 0 1 0 0 1
pinlabel=1
T 48850 46050 5 8 0 1 0 0 1
pintype=pas
}
P 49650 46000 49800 46000 1 0 1
{
T 49700 46050 5 8 0 1 0 0 1
pinnumber=2
T 49700 46050 5 8 0 0 0 0 1
pinseq=2
T 49700 46050 5 8 0 1 0 0 1
pinlabel=2
T 49700 46050 5 8 0 1 0 0 1
pintype=pas
}
L 48950 46000 49125 46000 3 0 0 0 -1 -1
L 49650 46000 49475 46000 3 0 0 0 -1 -1
L 49125 46000 49475 46075 3 0 0 0 -1 -1
V 49139 46000 25 3 0 0 0 -1 -1 0 -1 -1 -1 -1 -1
V 49462 46000 25 3 0 0 0 -1 -1 0 -1 -1 -1 -1 -1
T 49200 46300 8 10 0 1 0 0 1
refdes=S?
T 49200 46600 8 10 0 0 0 0 1
device=SWITCH_PUSHBUTTON_NO
]
{
T 49100 46100 5 10 1 1 0 0 1
refdes=S4
T 49200 46600 5 10 0 0 0 0 1
device=SWITCH_PUSHBUTTON_NO
T 48800 46000 5 10 0 0 0 0 1
footprint=TYCO_FSM
}
C 48800 46300 1 0 0 EMBEDDEDswitch-no-1.sym
[
P 48800 46300 48950 46300 1 0 0
{
T 48850 46350 5 8 0 1 0 0 1
pinnumber=1
T 48850 46350 5 8 0 0 0 0 1
pinseq=1
T 48850 46350 5 8 0 1 0 0 1
pinlabel=1
T 48850 46350 5 8 0 1 0 0 1
pintype=pas
}
P 49650 46300 49800 46300 1 0 1
{
T 49700 46350 5 8 0 1 0 0 1
pinnumber=2
T 49700 46350 5 8 0 0 0 0 1
pinseq=2
T 49700 46350 5 8 0 1 0 0 1
pinlabel=2
T 49700 46350 5 8 0 1 0 0 1
pintype=pas
}
L 48950 46300 49125 46300 3 0 0 0 -1 -1
L 49650 46300 49475 46300 3 0 0 0 -1 -1
L 49125 46300 49475 46375 3 0 0 0 -1 -1
V 49139 46300 25 3 0 0 0 -1 -1 0 -1 -1 -1 -1 -1
V 49462 46300 25 3 0 0 0 -1 -1 0 -1 -1 -1 -1 -1
T 49200 46600 8 10 0 1 0 0 1
refdes=S?
T 49200 46900 8 10 0 0 0 0 1
device=SWITCH_PUSHBUTTON_NO
]
{
T 49100 46400 5 10 1 1 0 0 1
refdes=S3
T 49200 46900 5 10 0 0 0 0 1
device=SWITCH_PUSHBUTTON_NO
T 48800 46300 5 10 0 0 0 0 1
footprint=TYCO_FSM
}
C 48800 46600 1 0 0 EMBEDDEDswitch-no-1.sym
[
P 48800 46600 48950 46600 1 0 0
{
T 48850 46650 5 8 0 1 0 0 1
pinnumber=1
T 48850 46650 5 8 0 0 0 0 1
pinseq=1
T 48850 46650 5 8 0 1 0 0 1
pinlabel=1
T 48850 46650 5 8 0 1 0 0 1
pintype=pas
}
P 49650 46600 49800 46600 1 0 1
{
T 49700 46650 5 8 0 1 0 0 1
pinnumber=2
T 49700 46650 5 8 0 0 0 0 1
pinseq=2
T 49700 46650 5 8 0 1 0 0 1
pinlabel=2
T 49700 46650 5 8 0 1 0 0 1
pintype=pas
}
L 48950 46600 49125 46600 3 0 0 0 -1 -1
L 49650 46600 49475 46600 3 0 0 0 -1 -1
L 49125 46600 49475 46675 3 0 0 0 -1 -1
V 49139 46600 25 3 0 0 0 -1 -1 0 -1 -1 -1 -1 -1
V 49462 46600 25 3 0 0 0 -1 -1 0 -1 -1 -1 -1 -1
T 49200 46900 8 10 0 1 0 0 1
refdes=S?
T 49200 47200 8 10 0 0 0 0 1
device=SWITCH_PUSHBUTTON_NO
]
{
T 49100 46700 5 10 1 1 0 0 1
refdes=S2
T 49200 47200 5 10 0 0 0 0 1
device=SWITCH_PUSHBUTTON_NO
T 48800 46600 5 10 0 0 0 0 1
footprint=TYCO_FSM
}
C 48800 46900 1 0 0 EMBEDDEDswitch-no-1.sym
[
P 48800 46900 48950 46900 1 0 0
{
T 48850 46950 5 8 0 1 0 0 1
pinnumber=1
T 48850 46950 5 8 0 0 0 0 1
pinseq=1
T 48850 46950 5 8 0 1 0 0 1
pinlabel=1
T 48850 46950 5 8 0 1 0 0 1
pintype=pas
}
P 49650 46900 49800 46900 1 0 1
{
T 49700 46950 5 8 0 1 0 0 1
pinnumber=2
T 49700 46950 5 8 0 0 0 0 1
pinseq=2
T 49700 46950 5 8 0 1 0 0 1
pinlabel=2
T 49700 46950 5 8 0 1 0 0 1
pintype=pas
}
L 48950 46900 49125 46900 3 0 0 0 -1 -1
L 49650 46900 49475 46900 3 0 0 0 -1 -1
L 49125 46900 49475 46975 3 0 0 0 -1 -1
V 49139 46900 25 3 0 0 0 -1 -1 0 -1 -1 -1 -1 -1
V 49462 46900 25 3 0 0 0 -1 -1 0 -1 -1 -1 -1 -1
T 49200 47200 8 10 0 1 0 0 1
refdes=S?
T 49200 47500 8 10 0 0 0 0 1
device=SWITCH_PUSHBUTTON_NO
]
{
T 49100 47000 5 10 1 1 0 0 1
refdes=S1
T 49200 47500 5 10 0 0 0 0 1
device=SWITCH_PUSHBUTTON_NO
T 48800 46900 5 10 0 0 0 0 1
footprint=TYCO_FSM
}
C 48600 45100 1 0 0 EMBEDDEDgnd-1.sym
[
P 48700 45200 48700 45400 1 0 1
{
T 48758 45261 5 4 0 1 0 0 1
pinnumber=1
T 48758 45261 5 4 0 0 0 0 1
pinseq=1
T 48758 45261 5 4 0 1 0 0 1
pinlabel=1
T 48758 45261 5 4 0 1 0 0 1
pintype=pwr
}
L 48600 45200 48800 45200 3 0 0 0 -1 -1
L 48655 45150 48745 45150 3 0 0 0 -1 -1
L 48680 45110 48720 45110 3 0 0 0 -1 -1
T 48900 45150 8 10 0 0 0 0 1
net=GND:1
]
N 48700 45400 48700 46900 4
N 48700 46900 48800 46900 4
N 48800 46600 48700 46600 4
N 48800 46300 48700 46300 4
N 48800 46000 48700 46000 4
N 48800 45700 48700 45700 4
N 48800 45400 48700 45400 4
N 51600 45400 49800 45400 4
N 51600 45600 50000 45600 4
N 50000 45600 50000 45700 4
N 50000 45700 49800 45700 4
N 51600 45800 50100 45800 4
N 50100 45800 50100 46000 4
N 50100 46000 49800 46000 4
N 51600 46000 50200 46000 4
N 50200 46000 50200 46300 4
N 50200 46300 49800 46300 4
N 51600 46200 50300 46200 4
N 50300 46200 50300 46600 4
N 50300 46600 49800 46600 4
N 51600 46400 50400 46400 4
N 50400 46400 50400 46900 4
N 50400 46900 49800 46900 4
C 55200 47500 1 0 0 EMBEDDEDconnector6-2.sym
[
P 55200 49900 55400 49900 1 0 0
{
T 55400 49950 5 8 0 1 0 6 1
pinnumber=1
T 55400 49850 5 8 0 1 0 8 1
pinseq=1
T 55550 49900 9 8 1 1 0 0 1
pinlabel=1
T 55550 49900 5 8 0 1 0 2 1
pintype=pas
}
V 55450 49900 50 6 0 0 0 -1 -1 0 -1 -1 -1 -1 -1
P 55200 49500 55400 49500 1 0 0
{
T 55400 49550 5 8 0 1 0 6 1
pinnumber=2
T 55400 49450 5 8 0 1 0 8 1
pinseq=2
T 55550 49500 9 8 1 1 0 0 1
pinlabel=2
T 55550 49500 5 8 0 1 0 2 1
pintype=pas
}
V 55450 49500 50 6 0 0 0 -1 -1 0 -1 -1 -1 -1 -1
P 55200 49100 55400 49100 1 0 0
{
T 55400 49150 5 8 0 1 0 6 1
pinnumber=3
T 55400 49050 5 8 0 1 0 8 1
pinseq=3
T 55550 49100 9 8 1 1 0 0 1
pinlabel=3
T 55550 49100 5 8 0 1 0 2 1
pintype=pas
}
V 55450 49100 50 6 0 0 0 -1 -1 0 -1 -1 -1 -1 -1
P 55200 48700 55400 48700 1 0 0
{
T 55400 48750 5 8 0 1 0 6 1
pinnumber=4
T 55400 48650 5 8 0 1 0 8 1
pinseq=4
T 55550 48700 9 8 1 1 0 0 1
pinlabel=4
T 55550 48700 5 8 0 1 0 2 1
pintype=pas
}
V 55450 48700 50 6 0 0 0 -1 -1 0 -1 -1 -1 -1 -1
P 55200 48300 55400 48300 1 0 0
{
T 55400 48350 5 8 0 1 0 6 1
pinnumber=5
T 55400 48250 5 8 0 1 0 8 1
pinseq=5
T 55550 48300 9 8 1 1 0 0 1
pinlabel=5
T 55550 48300 5 8 0 1 0 2 1
pintype=pas
}
V 55450 48300 50 6 0 0 0 -1 -1 0 -1 -1 -1 -1 -1
P 55200 47900 55400 47900 1 0 0
{
T 55400 47950 5 8 0 1 0 6 1
pinnumber=6
T 55400 47850 5 8 0 1 0 8 1
pinseq=6
T 55550 47900 9 8 1 1 0 0 1
pinlabel=6
T 55550 47900 5 8 0 1 0 2 1
pintype=pas
}
V 55450 47900 50 6 0 0 0 -1 -1 0 -1 -1 -1 -1 -1
B 55500 47500 400 2800 3 0 0 0 -1 -1 0 -1 -1 -1 -1 -1
T 55900 50400 8 10 0 1 0 6 1
refdes=CONN?
T 55500 50350 5 10 0 0 0 0 1
device=CONNECTOR_6
T 55500 50550 5 10 0 0 0 0 1
footprint=SIP6N
T 55500 50750 5 10 0 0 0 0 1
author=Leon Kos
T 55500 50950 5 10 0 0 0 0 1
description=generic connector
T 55500 51150 5 10 0 0 0 0 1
numslots=0
]
{
T 55900 50400 5 10 1 1 0 6 1
refdes=J2
T 55500 50350 5 10 0 0 0 0 1
device=HEADER6_2
T 55500 50550 5 10 0 0 0 0 1
footprint=HEADER6_2
}
N 55200 49900 50600 49900 4
N 50600 49900 50600 46000 4
N 55200 49100 50800 49100 4
N 50800 49100 50800 45800 4
N 55200 48700 51000 48700 4
N 51000 48700 51000 46200 4
N 55200 48300 51200 48300 4
N 51200 48300 51200 43800 4
N 51200 43800 51600 43800 4
C 54900 47600 1 0 0 EMBEDDEDgnd-1.sym
[
P 55000 47700 55000 47900 1 0 1
{
T 55058 47761 5 4 0 1 0 0 1
pinnumber=1
T 55058 47761 5 4 0 0 0 0 1
pinseq=1
T 55058 47761 5 4 0 1 0 0 1
pinlabel=1
T 55058 47761 5 4 0 1 0 0 1
pintype=pwr
}
L 54900 47700 55100 47700 3 0 0 0 -1 -1
L 54955 47650 55045 47650 3 0 0 0 -1 -1
L 54980 47610 55020 47610 3 0 0 0 -1 -1
T 55200 47650 8 10 0 0 0 0 1
net=GND:1
]
C 54800 49500 1 0 0 EMBEDDEDvcc-1.sym
[
P 55000 49500 55000 49700 1 0 0
{
T 55050 49550 5 6 0 1 0 0 1
pinnumber=1
T 55050 49550 5 6 0 0 0 0 1
pinseq=1
T 55050 49550 5 6 0 1 0 0 1
pinlabel=1
T 55050 49550 5 6 0 1 0 0 1
pintype=pwr
}
L 54850 49700 55150 49700 3 0 0 0 -1 -1
T 54875 49750 9 8 1 0 0 0 1
Vcc
T 55250 49700 8 10 0 0 0 0 1
net=Vcc:1
]
N 55000 49500 55200 49500 4
N 55000 47900 55200 47900 4
N 48600 42500 49300 42500 4
N 49300 42500 49300 42600 4
N 51400 47300 48300 47300 4
N 48300 47300 48300 50700 4
N 48300 50700 46900 50700 4
C 53300 47700 1 0 0 EMBEDDEDresistor-2.sym
[
P 54200 47800 54050 47800 1 0 0
{
T 54100 47850 5 8 0 1 0 0 1
pinnumber=2
T 54100 47850 5 8 0 0 0 0 1
pinseq=2
T 54100 47850 5 8 0 1 0 0 1
pinlabel=2
T 54100 47850 5 8 0 1 0 0 1
pintype=pas
}
P 53300 47800 53450 47800 1 0 0
{
T 53400 47850 5 8 0 1 0 0 1
pinnumber=1
T 53400 47850 5 8 0 0 0 0 1
pinseq=1
T 53400 47850 5 8 0 1 0 0 1
pinlabel=1
T 53400 47850 5 8 0 1 0 0 1
pintype=pas
}
B 53450 47700 600 200 3 0 0 0 -1 -1 0 -1 -1 -1 -1 -1
T 53700 48050 5 10 0 0 0 0 1
device=RESISTOR
T 53500 48000 8 10 0 1 0 0 1
refdes=R?
]
{
T 53700 48050 5 10 0 0 0 0 1
device=RESISTOR
T 53400 47850 5 10 1 1 0 6 1
refdes=R11
T 54100 47850 5 10 1 1 0 0 1
value=10k
T 53300 47700 5 10 0 0 0 0 1
footprint=r250
}
C 52700 47800 1 0 0 EMBEDDEDvcc-1.sym
[
P 52900 47800 52900 48000 1 0 0
{
T 52950 47850 5 6 0 1 0 0 1
pinnumber=1
T 52950 47850 5 6 0 0 0 0 1
pinseq=1
T 52950 47850 5 6 0 1 0 0 1
pinlabel=1
T 52950 47850 5 6 0 1 0 0 1
pintype=pwr
}
L 52750 48000 53050 48000 3 0 0 0 -1 -1
T 52775 48050 9 8 1 0 0 0 1
Vcc
T 53150 48000 8 10 0 0 0 0 1
net=Vcc:1
]
N 54200 47800 54500 47800 4
N 54500 47800 54500 48300 4
N 53300 47800 52900 47800 4
C 54300 45000 1 270 0 EMBEDDEDcapacitor-1.sym
[
P 54500 45000 54500 44800 1 0 0
{
T 54550 44850 5 8 0 1 270 6 1
pinnumber=1
T 54450 44850 5 8 0 1 270 8 1
pinseq=1
T 54500 44800 9 8 0 1 270 0 1
pinlabel=1
T 54500 44800 5 8 0 1 270 2 1
pintype=pas
}
P 54500 44100 54500 44300 1 0 0
{
T 54550 44250 5 8 0 1 270 0 1
pinnumber=2
T 54450 44250 5 8 0 1 270 2 1
pinseq=2
T 54500 44300 9 8 0 1 270 6 1
pinlabel=2
T 54500 44300 5 8 0 1 270 8 1
pintype=pas
}
L 54700 44600 54300 44600 3 0 0 0 -1 -1
L 54700 44500 54300 44500 3 0 0 0 -1 -1
L 54500 44300 54500 44500 3 0 0 0 -1 -1
L 54500 44600 54500 44800 3 0 0 0 -1 -1
T 55000 44800 5 10 0 0 270 0 1
device=CAPACITOR
T 54800 44800 8 10 0 1 270 0 1
refdes=C?
T 55600 44800 5 10 0 0 270 0 1
description=capacitor
T 55400 44800 5 10 0 0 270 0 1
numslots=0
T 55200 44800 5 10 0 0 270 0 1
symversion=0.1
]
{
T 55000 44800 5 10 0 0 270 0 1
device=CAPACITOR
T 54550 44650 5 10 1 1 0 0 1
refdes=C1
T 55200 44800 5 10 0 0 270 0 1
symversion=0.1
T 54300 45000 5 10 0 0 0 0 1
footprint=c100
T 54550 44450 5 10 1 1 0 2 1
value=100n
}
C 54400 43800 1 0 0 EMBEDDEDgnd-1.sym
[
P 54500 43900 54500 44100 1 0 1
{
T 54558 43961 5 4 0 1 0 0 1
pinnumber=1
T 54558 43961 5 4 0 0 0 0 1
pinseq=1
T 54558 43961 5 4 0 1 0 0 1
pinlabel=1
T 54558 43961 5 4 0 1 0 0 1
pintype=pwr
}
L 54400 43900 54600 43900 3 0 0 0 -1 -1
L 54455 43850 54545 43850 3 0 0 0 -1 -1
L 54480 43810 54520 43810 3 0 0 0 -1 -1
T 54700 43850 8 10 0 0 0 0 1
net=GND:1
]
C 41800 43900 1 0 0 EMBEDDED7segment-1-1.sym
[
B 42100 43900 1200 2200 3 0 0 0 -1 -1 0 -1 -1 -1 -1 -1
L 42650 45600 42550 45100 3 20 0 0 -1 -1
L 42550 45000 42450 44500 3 20 0 0 -1 -1
L 42650 45000 42950 45000 3 20 0 0 -1 -1
L 42750 45600 43050 45600 3 20 0 0 -1 -1
L 43150 45600 43050 45100 3 20 0 0 -1 -1
L 43050 45000 42950 44500 3 20 0 0 -1 -1
L 42550 44500 42850 44500 3 20 0 0 -1 -1
V 43100 44550 50 3 20 0 0 -1 -1 0 -1 -1 -1 -1 -1
P 41800 45900 42100 45900 1 0 0
{
T 41800 45900 5 10 0 0 0 0 1
pintype=pas
T 42155 45895 5 10 1 1 0 0 1
pinlabel=A
T 42005 45945 5 10 1 1 0 6 1
pinnumber=7
T 41800 45900 5 10 0 0 0 0 1
pinseq=7
}
P 41800 45700 42100 45700 1 0 0
{
T 41800 45700 5 10 0 0 0 0 1
pintype=pas
T 42155 45695 5 10 1 1 0 0 1
pinlabel=B
T 42005 45745 5 10 1 1 0 6 1
pinnumber=6
T 41800 45700 5 10 0 0 0 0 1
pinseq=6
}
P 41800 45500 42100 45500 1 0 0
{
T 41800 45500 5 10 0 0 0 0 1
pintype=pas
T 42155 45495 5 10 1 1 0 0 1
pinlabel=C
T 42005 45545 5 10 1 1 0 6 1
pinnumber=4
T 41800 45500 5 10 0 0 0 0 1
pinseq=4
}
P 41800 45300 42100 45300 1 0 0
{
T 41800 45300 5 10 0 0 0 0 1
pintype=pas
T 42155 45295 5 10 1 1 0 0 1
pinlabel=D
T 42005 45345 5 10 1 1 0 6 1
pinnumber=2
T 41800 45300 5 10 0 0 0 0 1
pinseq=2
}
P 41800 45100 42100 45100 1 0 0
{
T 41800 45100 5 10 0 0 0 0 1
pintype=pas
T 42155 45095 5 10 1 1 0 0 1
pinlabel=E
T 42005 45145 5 10 1 1 0 6 1
pinnumber=1
T 41800 45100 5 10 0 0 0 0 1
pinseq=1
}
P 41800 44900 42100 44900 1 0 0
{
T 41800 44900 5 10 0 0 0 0 1
pintype=pas
T 42155 44895 5 10 1 1 0 0 1
pinlabel=F
T 42005 44945 5 10 1 1 0 6 1
pinnumber=9
T 41800 44900 5 10 0 0 0 0 1
pinseq=9
}
P 41800 44700 42100 44700 1 0 0
{
T 41800 44700 5 10 0 0 0 0 1
pintype=pas
T 42155 44695 5 10 1 1 0 0 1
pinlabel=G
T 42005 44745 5 10 1 1 0 6 1
pinnumber=10
T 41800 44700 5 10 0 0 0 0 1
pinseq=10
}
P 41800 44500 42100 44500 1 0 0
{
T 41800 44500 5 10 0 0 0 0 1
pintype=pas
T 42155 44495 5 10 1 1 0 0 1
pinlabel=DP
T 42005 44545 5 10 1 1 0 6 1
pinnumber=5
T 41800 44500 5 10 0 0 0 0 1
pinseq=5
}
P 41800 44300 42100 44300 1 0 0
{
T 41800 44300 5 10 0 0 0 0 1
pintype=pas
T 42155 44295 5 10 1 1 0 0 1
pinlabel=Com
T 42005 44345 5 10 1 1 0 6 1
pinnumber=3
T 41800 44300 5 10 0 0 0 0 1
pinseq=3
}
P 41800 44100 42100 44100 1 0 0
{
T 41800 44100 5 10 0 0 0 0 1
pintype=pas
T 42155 44095 5 10 1 1 0 0 1
pinlabel=Com
T 42005 44145 5 10 1 1 0 6 1
pinnumber=8
T 41800 44100 5 10 0 0 0 0 1
pinseq=8
}
T 43200 46150 8 10 0 1 0 0 1
refdes=D?
T 42000 46150 5 10 0 1 0 0 1
device=HDSP-C5A3
T 41900 47600 5 10 0 0 0 0 1
description=7-segment-display
T 41900 47400 5 10 0 0 0 0 1
numslots=0
T 41900 47200 5 10 0 0 0 0 1
footprint=none
T 41900 47000 8 10 0 0 0 0 1
author=B. Stultiens
T 41900 46800 8 10 0 0 0 0 1
dist-license=GPL
T 41900 46600 8 10 0 0 0 0 1
use-license=unlimited
T 41900 46400 8 10 0 0 0 0 1
comment=Suggested library: unknown
]
{
T 41900 47200 5 10 0 0 0 0 1
footprint=HDSP-C5xx_BS_1
T 43200 46150 5 10 1 1 0 0 1
refdes=D2
T 42000 46150 5 10 1 1 0 0 1
device=HDSP-C5A3
}
C 44900 46500 1 0 0 EMBEDDED7segment-1-1.sym
[
B 45200 46500 1200 2200 3 0 0 0 -1 -1 0 -1 -1 -1 -1 -1
L 45750 48200 45650 47700 3 20 0 0 -1 -1
L 45650 47600 45550 47100 3 20 0 0 -1 -1
L 45750 47600 46050 47600 3 20 0 0 -1 -1
L 45850 48200 46150 48200 3 20 0 0 -1 -1
L 46250 48200 46150 47700 3 20 0 0 -1 -1
L 46150 47600 46050 47100 3 20 0 0 -1 -1
L 45650 47100 45950 47100 3 20 0 0 -1 -1
V 46200 47150 50 3 20 0 0 -1 -1 0 -1 -1 -1 -1 -1
P 44900 48500 45200 48500 1 0 0
{
T 44900 48500 5 10 0 0 0 0 1
pintype=pas
T 45255 48495 5 10 1 1 0 0 1
pinlabel=A
T 45105 48545 5 10 1 1 0 6 1
pinnumber=7
T 44900 48500 5 10 0 0 0 0 1
pinseq=7
}
P 44900 48300 45200 48300 1 0 0
{
T 44900 48300 5 10 0 0 0 0 1
pintype=pas
T 45255 48295 5 10 1 1 0 0 1
pinlabel=B
T 45105 48345 5 10 1 1 0 6 1
pinnumber=6
T 44900 48300 5 10 0 0 0 0 1
pinseq=6
}
P 44900 48100 45200 48100 1 0 0
{
T 44900 48100 5 10 0 0 0 0 1
pintype=pas
T 45255 48095 5 10 1 1 0 0 1
pinlabel=C
T 45105 48145 5 10 1 1 0 6 1
pinnumber=4
T 44900 48100 5 10 0 0 0 0 1
pinseq=4
}
P 44900 47900 45200 47900 1 0 0
{
T 44900 47900 5 10 0 0 0 0 1
pintype=pas
T 45255 47895 5 10 1 1 0 0 1
pinlabel=D
T 45105 47945 5 10 1 1 0 6 1
pinnumber=2
T 44900 47900 5 10 0 0 0 0 1
pinseq=2
}
P 44900 47700 45200 47700 1 0 0
{
T 44900 47700 5 10 0 0 0 0 1
pintype=pas
T 45255 47695 5 10 1 1 0 0 1
pinlabel=E
T 45105 47745 5 10 1 1 0 6 1
pinnumber=1
T 44900 47700 5 10 0 0 0 0 1
pinseq=1
}
P 44900 47500 45200 47500 1 0 0
{
T 44900 47500 5 10 0 0 0 0 1
pintype=pas
T 45255 47495 5 10 1 1 0 0 1
pinlabel=F
T 45105 47545 5 10 1 1 0 6 1
pinnumber=9
T 44900 47500 5 10 0 0 0 0 1
pinseq=9
}
P 44900 47300 45200 47300 1 0 0
{
T 44900 47300 5 10 0 0 0 0 1
pintype=pas
T 45255 47295 5 10 1 1 0 0 1
pinlabel=G
T 45105 47345 5 10 1 1 0 6 1
pinnumber=10
T 44900 47300 5 10 0 0 0 0 1
pinseq=10
}
P 44900 47100 45200 47100 1 0 0
{
T 44900 47100 5 10 0 0 0 0 1
pintype=pas
T 45255 47095 5 10 1 1 0 0 1
pinlabel=DP
T 45105 47145 5 10 1 1 0 6 1
pinnumber=5
T 44900 47100 5 10 0 0 0 0 1
pinseq=5
}
P 44900 46900 45200 46900 1 0 0
{
T 44900 46900 5 10 0 0 0 0 1
pintype=pas
T 45255 46895 5 10 1 1 0 0 1
pinlabel=Com
T 45105 46945 5 10 1 1 0 6 1
pinnumber=3
T 44900 46900 5 10 0 0 0 0 1
pinseq=3
}
P 44900 46700 45200 46700 1 0 0
{
T 44900 46700 5 10 0 0 0 0 1
pintype=pas
T 45255 46695 5 10 1 1 0 0 1
pinlabel=Com
T 45105 46745 5 10 1 1 0 6 1
pinnumber=8
T 44900 46700 5 10 0 0 0 0 1
pinseq=8
}
T 46300 48750 8 10 0 1 0 0 1
refdes=D?
T 45100 48750 5 10 0 1 0 0 1
device=HDSP-C5A3
T 45000 50200 5 10 0 0 0 0 1
description=7-segment-display
T 45000 50000 5 10 0 0 0 0 1
numslots=0
T 45000 49800 5 10 0 0 0 0 1
footprint=none
T 45000 49600 8 10 0 0 0 0 1
author=B. Stultiens
T 45000 49400 8 10 0 0 0 0 1
dist-license=GPL
T 45000 49200 8 10 0 0 0 0 1
use-license=unlimited
T 45000 49000 8 10 0 0 0 0 1
comment=Suggested library: unknown
]
{
T 45000 49800 5 10 0 0 0 0 1
footprint=HDSP-C5xx_BS_1
T 46300 48750 5 10 1 1 0 0 1
refdes=D6
T 45100 48750 5 10 1 1 0 0 1
device=HDSP-C5A3
}
C 44900 43900 1 0 0 EMBEDDED7segment-1-1.sym
[
B 45200 43900 1200 2200 3 0 0 0 -1 -1 0 -1 -1 -1 -1 -1
L 45750 45600 45650 45100 3 20 0 0 -1 -1
L 45650 45000 45550 44500 3 20 0 0 -1 -1
L 45750 45000 46050 45000 3 20 0 0 -1 -1
L 45850 45600 46150 45600 3 20 0 0 -1 -1
L 46250 45600 46150 45100 3 20 0 0 -1 -1
L 46150 45000 46050 44500 3 20 0 0 -1 -1
L 45650 44500 45950 44500 3 20 0 0 -1 -1
V 46200 44550 50 3 20 0 0 -1 -1 0 -1 -1 -1 -1 -1
P 44900 45900 45200 45900 1 0 0
{
T 44900 45900 5 10 0 0 0 0 1
pintype=pas
T 45255 45895 5 10 1 1 0 0 1
pinlabel=A
T 45105 45945 5 10 1 1 0 6 1
pinnumber=7
T 44900 45900 5 10 0 0 0 0 1
pinseq=7
}
P 44900 45700 45200 45700 1 0 0
{
T 44900 45700 5 10 0 0 0 0 1
pintype=pas
T 45255 45695 5 10 1 1 0 0 1
pinlabel=B
T 45105 45745 5 10 1 1 0 6 1
pinnumber=6
T 44900 45700 5 10 0 0 0 0 1
pinseq=6
}
P 44900 45500 45200 45500 1 0 0
{
T 44900 45500 5 10 0 0 0 0 1
pintype=pas
T 45255 45495 5 10 1 1 0 0 1
pinlabel=C
T 45105 45545 5 10 1 1 0 6 1
pinnumber=4
T 44900 45500 5 10 0 0 0 0 1
pinseq=4
}
P 44900 45300 45200 45300 1 0 0
{
T 44900 45300 5 10 0 0 0 0 1
pintype=pas
T 45255 45295 5 10 1 1 0 0 1
pinlabel=D
T 45105 45345 5 10 1 1 0 6 1
pinnumber=2
T 44900 45300 5 10 0 0 0 0 1
pinseq=2
}
P 44900 45100 45200 45100 1 0 0
{
T 44900 45100 5 10 0 0 0 0 1
pintype=pas
T 45255 45095 5 10 1 1 0 0 1
pinlabel=E
T 45105 45145 5 10 1 1 0 6 1
pinnumber=1
T 44900 45100 5 10 0 0 0 0 1
pinseq=1
}
P 44900 44900 45200 44900 1 0 0
{
T 44900 44900 5 10 0 0 0 0 1
pintype=pas
T 45255 44895 5 10 1 1 0 0 1
pinlabel=F
T 45105 44945 5 10 1 1 0 6 1
pinnumber=9
T 44900 44900 5 10 0 0 0 0 1
pinseq=9
}
P 44900 44700 45200 44700 1 0 0
{
T 44900 44700 5 10 0 0 0 0 1
pintype=pas
T 45255 44695 5 10 1 1 0 0 1
pinlabel=G
T 45105 44745 5 10 1 1 0 6 1
pinnumber=10
T 44900 44700 5 10 0 0 0 0 1
pinseq=10
}
P 44900 44500 45200 44500 1 0 0
{
T 44900 44500 5 10 0 0 0 0 1
pintype=pas
T 45255 44495 5 10 1 1 0 0 1
pinlabel=DP
T 45105 44545 5 10 1 1 0 6 1
pinnumber=5
T 44900 44500 5 10 0 0 0 0 1
pinseq=5
}
P 44900 44300 45200 44300 1 0 0
{
T 44900 44300 5 10 0 0 0 0 1
pintype=pas
T 45255 44295 5 10 1 1 0 0 1
pinlabel=Com
T 45105 44345 5 10 1 1 0 6 1
pinnumber=3
T 44900 44300 5 10 0 0 0 0 1
pinseq=3
}
P 44900 44100 45200 44100 1 0 0
{
T 44900 44100 5 10 0 0 0 0 1
pintype=pas
T 45255 44095 5 10 1 1 0 0 1
pinlabel=Com
T 45105 44145 5 10 1 1 0 6 1
pinnumber=8
T 44900 44100 5 10 0 0 0 0 1
pinseq=8
}
T 46300 46150 8 10 0 1 0 0 1
refdes=D?
T 45100 46150 5 10 0 1 0 0 1
device=HDSP-C5A3
T 45000 47600 5 10 0 0 0 0 1
description=7-segment-display
T 45000 47400 5 10 0 0 0 0 1
numslots=0
T 45000 47200 5 10 0 0 0 0 1
footprint=none
T 45000 47000 8 10 0 0 0 0 1
author=B. Stultiens
T 45000 46800 8 10 0 0 0 0 1
dist-license=GPL
T 45000 46600 8 10 0 0 0 0 1
use-license=unlimited
T 45000 46400 8 10 0 0 0 0 1
comment=Suggested library: unknown
]
{
T 45000 47200 5 10 0 0 0 0 1
footprint=HDSP-C5xx_BS_1
T 46300 46150 5 10 1 1 0 0 1
refdes=D5
T 45100 46150 5 10 1 1 0 0 1
device=HDSP-C5A3
}
C 44900 41300 1 0 0 EMBEDDED7segment-1-1.sym
[
B 45200 41300 1200 2200 3 0 0 0 -1 -1 0 -1 -1 -1 -1 -1
L 45750 43000 45650 42500 3 20 0 0 -1 -1
L 45650 42400 45550 41900 3 20 0 0 -1 -1
L 45750 42400 46050 42400 3 20 0 0 -1 -1
L 45850 43000 46150 43000 3 20 0 0 -1 -1
L 46250 43000 46150 42500 3 20 0 0 -1 -1
L 46150 42400 46050 41900 3 20 0 0 -1 -1
L 45650 41900 45950 41900 3 20 0 0 -1 -1
V 46200 41950 50 3 20 0 0 -1 -1 0 -1 -1 -1 -1 -1
P 44900 43300 45200 43300 1 0 0
{
T 44900 43300 5 10 0 0 0 0 1
pintype=pas
T 45255 43295 5 10 1 1 0 0 1
pinlabel=A
T 45105 43345 5 10 1 1 0 6 1
pinnumber=7
T 44900 43300 5 10 0 0 0 0 1
pinseq=7
}
P 44900 43100 45200 43100 1 0 0
{
T 44900 43100 5 10 0 0 0 0 1
pintype=pas
T 45255 43095 5 10 1 1 0 0 1
pinlabel=B
T 45105 43145 5 10 1 1 0 6 1
pinnumber=6
T 44900 43100 5 10 0 0 0 0 1
pinseq=6
}
P 44900 42900 45200 42900 1 0 0
{
T 44900 42900 5 10 0 0 0 0 1
pintype=pas
T 45255 42895 5 10 1 1 0 0 1
pinlabel=C
T 45105 42945 5 10 1 1 0 6 1
pinnumber=4
T 44900 42900 5 10 0 0 0 0 1
pinseq=4
}
P 44900 42700 45200 42700 1 0 0
{
T 44900 42700 5 10 0 0 0 0 1
pintype=pas
T 45255 42695 5 10 1 1 0 0 1
pinlabel=D
T 45105 42745 5 10 1 1 0 6 1
pinnumber=2
T 44900 42700 5 10 0 0 0 0 1
pinseq=2
}
P 44900 42500 45200 42500 1 0 0
{
T 44900 42500 5 10 0 0 0 0 1
pintype=pas
T 45255 42495 5 10 1 1 0 0 1
pinlabel=E
T 45105 42545 5 10 1 1 0 6 1
pinnumber=1
T 44900 42500 5 10 0 0 0 0 1
pinseq=1
}
P 44900 42300 45200 42300 1 0 0
{
T 44900 42300 5 10 0 0 0 0 1
pintype=pas
T 45255 42295 5 10 1 1 0 0 1
pinlabel=F
T 45105 42345 5 10 1 1 0 6 1
pinnumber=9
T 44900 42300 5 10 0 0 0 0 1
pinseq=9
}
P 44900 42100 45200 42100 1 0 0
{
T 44900 42100 5 10 0 0 0 0 1
pintype=pas
T 45255 42095 5 10 1 1 0 0 1
pinlabel=G
T 45105 42145 5 10 1 1 0 6 1
pinnumber=10
T 44900 42100 5 10 0 0 0 0 1
pinseq=10
}
P 44900 41900 45200 41900 1 0 0
{
T 44900 41900 5 10 0 0 0 0 1
pintype=pas
T 45255 41895 5 10 1 1 0 0 1
pinlabel=DP
T 45105 41945 5 10 1 1 0 6 1
pinnumber=5
T 44900 41900 5 10 0 0 0 0 1
pinseq=5
}
P 44900 41700 45200 41700 1 0 0
{
T 44900 41700 5 10 0 0 0 0 1
pintype=pas
T 45255 41695 5 10 1 1 0 0 1
pinlabel=Com
T 45105 41745 5 10 1 1 0 6 1
pinnumber=3
T 44900 41700 5 10 0 0 0 0 1
pinseq=3
}
P 44900 41500 45200 41500 1 0 0
{
T 44900 41500 5 10 0 0 0 0 1
pintype=pas
T 45255 41495 5 10 1 1 0 0 1
pinlabel=Com
T 45105 41545 5 10 1 1 0 6 1
pinnumber=8
T 44900 41500 5 10 0 0 0 0 1
pinseq=8
}
T 46300 43550 8 10 0 1 0 0 1
refdes=D?
T 45100 43550 5 10 0 1 0 0 1
device=HDSP-C5A3
T 45000 45000 5 10 0 0 0 0 1
description=7-segment-display
T 45000 44800 5 10 0 0 0 0 1
numslots=0
T 45000 44600 5 10 0 0 0 0 1
footprint=none
T 45000 44400 8 10 0 0 0 0 1
author=B. Stultiens
T 45000 44200 8 10 0 0 0 0 1
dist-license=GPL
T 45000 44000 8 10 0 0 0 0 1
use-license=unlimited
T 45000 43800 8 10 0 0 0 0 1
comment=Suggested library: unknown
]
{
T 45000 44600 5 10 0 0 0 0 1
footprint=HDSP-C5xx_BS_1
T 46300 43550 5 10 1 1 0 0 1
refdes=D4
T 45100 43550 5 10 1 1 0 0 1
device=HDSP-C5A3
}
C 41800 41300 1 0 0 EMBEDDED7segment-1-1.sym
[
B 42100 41300 1200 2200 3 0 0 0 -1 -1 0 -1 -1 -1 -1 -1
L 42650 43000 42550 42500 3 20 0 0 -1 -1
L 42550 42400 42450 41900 3 20 0 0 -1 -1
L 42650 42400 42950 42400 3 20 0 0 -1 -1
L 42750 43000 43050 43000 3 20 0 0 -1 -1
L 43150 43000 43050 42500 3 20 0 0 -1 -1
L 43050 42400 42950 41900 3 20 0 0 -1 -1
L 42550 41900 42850 41900 3 20 0 0 -1 -1
V 43100 41950 50 3 20 0 0 -1 -1 0 -1 -1 -1 -1 -1
P 41800 43300 42100 43300 1 0 0
{
T 41800 43300 5 10 0 0 0 0 1
pintype=pas
T 42155 43295 5 10 1 1 0 0 1
pinlabel=A
T 42005 43345 5 10 1 1 0 6 1
pinnumber=7
T 41800 43300 5 10 0 0 0 0 1
pinseq=7
}
P 41800 43100 42100 43100 1 0 0
{
T 41800 43100 5 10 0 0 0 0 1
pintype=pas
T 42155 43095 5 10 1 1 0 0 1
pinlabel=B
T 42005 43145 5 10 1 1 0 6 1
pinnumber=6
T 41800 43100 5 10 0 0 0 0 1
pinseq=6
}
P 41800 42900 42100 42900 1 0 0
{
T 41800 42900 5 10 0 0 0 0 1
pintype=pas
T 42155 42895 5 10 1 1 0 0 1
pinlabel=C
T 42005 42945 5 10 1 1 0 6 1
pinnumber=4
T 41800 42900 5 10 0 0 0 0 1
pinseq=4
}
P 41800 42700 42100 42700 1 0 0
{
T 41800 42700 5 10 0 0 0 0 1
pintype=pas
T 42155 42695 5 10 1 1 0 0 1
pinlabel=D
T 42005 42745 5 10 1 1 0 6 1
pinnumber=2
T 41800 42700 5 10 0 0 0 0 1
pinseq=2
}
P 41800 42500 42100 42500 1 0 0
{
T 41800 42500 5 10 0 0 0 0 1
pintype=pas
T 42155 42495 5 10 1 1 0 0 1
pinlabel=E
T 42005 42545 5 10 1 1 0 6 1
pinnumber=1
T 41800 42500 5 10 0 0 0 0 1
pinseq=1
}
P 41800 42300 42100 42300 1 0 0
{
T 41800 42300 5 10 0 0 0 0 1
pintype=pas
T 42155 42295 5 10 1 1 0 0 1
pinlabel=F
T 42005 42345 5 10 1 1 0 6 1
pinnumber=9
T 41800 42300 5 10 0 0 0 0 1
pinseq=9
}
P 41800 42100 42100 42100 1 0 0
{
T 41800 42100 5 10 0 0 0 0 1
pintype=pas
T 42155 42095 5 10 1 1 0 0 1
pinlabel=G
T 42005 42145 5 10 1 1 0 6 1
pinnumber=10
T 41800 42100 5 10 0 0 0 0 1
pinseq=10
}
P 41800 41900 42100 41900 1 0 0
{
T 41800 41900 5 10 0 0 0 0 1
pintype=pas
T 42155 41895 5 10 1 1 0 0 1
pinlabel=DP
T 42005 41945 5 10 1 1 0 6 1
pinnumber=5
T 41800 41900 5 10 0 0 0 0 1
pinseq=5
}
P 41800 41700 42100 41700 1 0 0
{
T 41800 41700 5 10 0 0 0 0 1
pintype=pas
T 42155 41695 5 10 1 1 0 0 1
pinlabel=Com
T 42005 41745 5 10 1 1 0 6 1
pinnumber=3
T 41800 41700 5 10 0 0 0 0 1
pinseq=3
}
P 41800 41500 42100 41500 1 0 0
{
T 41800 41500 5 10 0 0 0 0 1
pintype=pas
T 42155 41495 5 10 1 1 0 0 1
pinlabel=Com
T 42005 41545 5 10 1 1 0 6 1
pinnumber=8
T 41800 41500 5 10 0 0 0 0 1
pinseq=8
}
T 43200 43550 8 10 0 1 0 0 1
refdes=D?
T 42000 43550 5 10 0 1 0 0 1
device=HDSP-C5A3
T 41900 45000 5 10 0 0 0 0 1
description=7-segment-display
T 41900 44800 5 10 0 0 0 0 1
numslots=0
T 41900 44600 5 10 0 0 0 0 1
footprint=none
T 41900 44400 8 10 0 0 0 0 1
author=B. Stultiens
T 41900 44200 8 10 0 0 0 0 1
dist-license=GPL
T 41900 44000 8 10 0 0 0 0 1
use-license=unlimited
T 41900 43800 8 10 0 0 0 0 1
comment=Suggested library: unknown
]
{
T 41900 44600 5 10 0 0 0 0 1
footprint=HDSP-C5xx_BS_1
T 43200 43550 5 10 1 1 0 0 1
refdes=D1
T 42000 43550 5 10 1 1 0 0 1
device=HDSP-C5A3
}
C 49000 49600 1 0 0 EMBEDDEDconnector2-2.sym
[
P 49000 50400 49200 50400 1 0 0
{
T 49200 50450 5 8 0 1 0 6 1
pinnumber=1
T 49200 50350 5 8 0 1 0 8 1
pinseq=1
T 49350 50400 9 8 1 1 0 0 1
pinlabel=1
T 49350 50400 5 8 0 1 0 2 1
pintype=pas
}
V 49250 50400 50 6 0 0 0 -1 -1 0 -1 -1 -1 -1 -1
P 49000 50000 49200 50000 1 0 0
{
T 49200 50050 5 8 0 1 0 6 1
pinnumber=2
T 49200 49950 5 8 0 1 0 8 1
pinseq=2
T 49350 50000 9 8 1 1 0 0 1
pinlabel=2
T 49350 50000 5 8 0 1 0 2 1
pintype=pas
}
V 49250 50000 50 6 0 0 0 -1 -1 0 -1 -1 -1 -1 -1
B 49300 49600 400 1200 3 0 0 0 -1 -1 0 -1 -1 -1 -1 -1
T 49700 50900 8 10 0 1 0 6 1
refdes=CONN?
T 49300 50850 5 10 0 0 0 0 1
device=CONNECTOR_2
T 49300 51050 5 10 0 0 0 0 1
footprint=SIP2N
T 49300 51250 5 10 0 0 0 0 1
author=Leon Kos
T 49300 51450 5 10 0 0 0 0 1
description=generic connector
T 49300 51650 5 10 0 0 0 0 1
numslots=0
]
{
T 49700 50900 5 10 1 1 0 6 1
refdes=J1
T 49300 50850 5 10 0 0 0 0 1
device=CONNECTOR_2
T 49300 51050 5 10 0 0 0 0 1
footprint=JUMPER2
}
C 48900 49700 1 0 0 EMBEDDEDgnd-1.sym
[
P 49000 49800 49000 50000 1 0 1
{
T 49058 49861 5 4 0 1 0 0 1
pinnumber=1
T 49058 49861 5 4 0 0 0 0 1
pinseq=1
T 49058 49861 5 4 0 1 0 0 1
pinlabel=1
T 49058 49861 5 4 0 1 0 0 1
pintype=pwr
}
L 48900 49800 49100 49800 3 0 0 0 -1 -1
L 48955 49750 49045 49750 3 0 0 0 -1 -1
L 48980 49710 49020 49710 3 0 0 0 -1 -1
T 49200 49750 8 10 0 0 0 0 1
net=GND:1
]
C 48800 50400 1 0 0 EMBEDDEDvcc-1.sym
[
P 49000 50400 49000 50600 1 0 0
{
T 49050 50450 5 6 0 1 0 0 1
pinnumber=1
T 49050 50450 5 6 0 0 0 0 1
pinseq=1
T 49050 50450 5 6 0 1 0 0 1
pinlabel=1
T 49050 50450 5 6 0 1 0 0 1
pintype=pwr
}
L 48850 50600 49150 50600 3 0 0 0 -1 -1
T 48875 50650 9 8 1 0 0 0 1
Vcc
T 49250 50600 8 10 0 0 0 0 1
net=Vcc:1
]
T 51600 40900 9 20 1 0 0 0 1
Fruit Machine
T 49500 40400 9 10 1 0 0 0 1
CC-BY-SA-3.0
T 49700 40100 9 10 1 0 0 0 1
1
T 51300 40100 9 10 1 0 0 0 1
1
T 53500 40100 9 10 1 0 0 0 1
Vagrearg
T 53500 40400 9 10 1 0 0 0 1
20140623
C 50300 50300 1 0 0 EMBEDDEDhole.sym
[
V 50800 50800 300 3 0 0 0 -1 -1 0 -1 -1 -1 -1 -1
V 50800 50800 200 3 0 0 0 -1 -1 0 -1 -1 -1 -1 -1
L 50800 51200 50800 50400 3 0 0 0 -1 -1
L 50400 50800 51200 50800 3 0 0 0 -1 -1
T 51100 51200 8 10 0 1 0 0 1
footprint=HOLE-3mm3
T 50400 51100 8 10 0 1 0 0 1
refdes=H?
T 51000 51100 8 10 0 1 0 0 1
value=3.3mm
]
{
T 51100 51200 5 10 0 1 0 0 1
footprint=HOLE-3mm2
T 50400 51100 5 10 1 1 0 0 1
refdes=H1
T 51000 51100 5 10 1 1 0 0 1
value=3.2mm
}
C 51700 50300 1 0 0 EMBEDDEDhole.sym
[
V 52200 50800 300 3 0 0 0 -1 -1 0 -1 -1 -1 -1 -1
V 52200 50800 200 3 0 0 0 -1 -1 0 -1 -1 -1 -1 -1
L 52200 51200 52200 50400 3 0 0 0 -1 -1
L 51800 50800 52600 50800 3 0 0 0 -1 -1
T 52500 51200 8 10 0 1 0 0 1
footprint=HOLE-3mm3
T 51800 51100 8 10 0 1 0 0 1
refdes=H?
T 52400 51100 8 10 0 1 0 0 1
value=3.3mm
]
{
T 52500 51200 5 10 0 1 0 0 1
footprint=HOLE-3mm2
T 51800 51100 5 10 1 1 0 0 1
refdes=H2
T 52400 51100 5 10 1 1 0 0 1
value=3.2mm
}
C 53100 50300 1 0 0 EMBEDDEDhole.sym
[
V 53600 50800 300 3 0 0 0 -1 -1 0 -1 -1 -1 -1 -1
V 53600 50800 200 3 0 0 0 -1 -1 0 -1 -1 -1 -1 -1
L 53600 51200 53600 50400 3 0 0 0 -1 -1
L 53200 50800 54000 50800 3 0 0 0 -1 -1
T 53900 51200 8 10 0 1 0 0 1
footprint=HOLE-3mm3
T 53200 51100 8 10 0 1 0 0 1
refdes=H?
T 53800 51100 8 10 0 1 0 0 1
value=3.3mm
]
{
T 53900 51200 5 10 0 1 0 0 1
footprint=HOLE-3mm2
T 53200 51100 5 10 1 1 0 0 1
refdes=H3
T 53800 51100 5 10 1 1 0 0 1
value=3.2mm
}
C 54400 50300 1 0 0 EMBEDDEDhole.sym
[
V 54900 50800 300 3 0 0 0 -1 -1 0 -1 -1 -1 -1 -1
V 54900 50800 200 3 0 0 0 -1 -1 0 -1 -1 -1 -1 -1
L 54900 51200 54900 50400 3 0 0 0 -1 -1
L 54500 50800 55300 50800 3 0 0 0 -1 -1
T 55200 51200 8 10 0 1 0 0 1
footprint=HOLE-3mm3
T 54500 51100 8 10 0 1 0 0 1
refdes=H?
T 55100 51100 8 10 0 1 0 0 1
value=3.3mm
]
{
T 55200 51200 5 10 0 1 0 0 1
footprint=HOLE-3mm2
T 54500 51100 5 10 1 1 0 0 1
refdes=H4
T 55100 51100 5 10 1 1 0 0 1
value=3.2mm
}
C 55300 43100 1 270 0 EMBEDDEDcapacitor-1.sym
[
P 55500 43100 55500 42900 1 0 0
{
T 55550 42950 5 8 0 1 270 6 1
pinnumber=1
T 55450 42950 5 8 0 1 270 8 1
pinseq=1
T 55500 42900 9 8 0 1 270 0 1
pinlabel=1
T 55500 42900 5 8 0 1 270 2 1
pintype=pas
}
P 55500 42200 55500 42400 1 0 0
{
T 55550 42350 5 8 0 1 270 0 1
pinnumber=2
T 55450 42350 5 8 0 1 270 2 1
pinseq=2
T 55500 42400 9 8 0 1 270 6 1
pinlabel=2
T 55500 42400 5 8 0 1 270 8 1
pintype=pas
}
L 55700 42700 55300 42700 3 0 0 0 -1 -1
L 55700 42600 55300 42600 3 0 0 0 -1 -1
L 55500 42400 55500 42600 3 0 0 0 -1 -1
L 55500 42700 55500 42900 3 0 0 0 -1 -1
T 56000 42900 5 10 0 0 270 0 1
device=CAPACITOR
T 55800 42900 8 10 0 1 270 0 1
refdes=C?
T 56600 42900 5 10 0 0 270 0 1
description=capacitor
T 56400 42900 5 10 0 0 270 0 1
numslots=0
T 56200 42900 5 10 0 0 270 0 1
symversion=0.1
]
{
T 56000 42900 5 10 0 0 270 0 1
device=CAPACITOR
T 55550 42750 5 10 1 1 0 0 1
refdes=C3
T 56200 42900 5 10 0 0 270 0 1
symversion=0.1
T 55300 43100 5 10 0 0 0 0 1
footprint=c100
T 55550 42550 5 10 1 1 0 2 1
value=100n
}
T 55500 47200 9 10 1 0 0 0 1
ICSP
N 51600 46600 51400 46600 4
N 51400 46600 51400 47300 4
C 46900 49100 1 0 1 EMBEDDEDULN2003-2.sym
[
P 44900 50700 45200 50700 1 0 0
{
T 45150 50750 5 8 1 1 0 6 1
pinnumber=16
T 45100 50750 5 8 0 0 0 6 1
pinseq=16
T 45260 50700 9 8 1 1 0 1 1
pinlabel=1C
T 45100 50750 5 8 0 1 0 6 1
pintype=pas
}
P 44900 50500 45200 50500 1 0 0
{
T 45150 50550 5 8 1 1 0 6 1
pinnumber=15
T 45100 50550 5 8 0 0 0 6 1
pinseq=15
T 45260 50500 9 8 1 1 0 1 1
pinlabel=2C
T 45100 50550 5 8 0 1 0 6 1
pintype=pas
}
P 44900 50300 45200 50300 1 0 0
{
T 45150 50350 5 8 1 1 0 6 1
pinnumber=14
T 45100 50350 5 8 0 0 0 6 1
pinseq=14
T 45260 50300 9 8 1 1 0 1 1
pinlabel=3C
T 45100 50350 5 8 0 1 0 6 1
pintype=pas
}
P 44900 50100 45200 50100 1 0 0
{
T 45150 50150 5 8 1 1 0 6 1
pinnumber=13
T 45100 50150 5 8 0 0 0 6 1
pinseq=13
T 45260 50100 9 8 1 1 0 1 1
pinlabel=4C
T 45100 50150 5 8 0 1 0 6 1
pintype=pas
}
T 46550 51440 5 10 0 0 0 6 1
device=ULN2003
T 46550 51240 5 10 0 0 0 6 1
footprint=DIP16
T 46600 50940 9 10 1 0 0 6 1
ULN2003
P 46600 50700 46900 50700 1 0 1
{
T 46540 50700 9 8 1 1 0 7 1
pinlabel=1B
T 46650 50750 5 8 1 1 0 0 1
pinnumber=1
T 46750 50750 5 10 0 0 0 6 1
pinseq=1
T 46750 50750 5 10 0 1 0 6 1
pintype=pas
}
P 46600 50500 46900 50500 1 0 1
{
T 46540 50500 9 8 1 1 0 7 1
pinlabel=2B
T 46650 50550 5 8 1 1 0 0 1
pinnumber=2
T 46800 50550 5 10 0 0 0 6 1
pinseq=2
T 46800 50550 5 10 0 1 0 6 1
pintype=pas
}
P 46600 50300 46900 50300 1 0 1
{
T 46540 50300 9 8 1 1 0 7 1
pinlabel=3B
T 46650 50350 5 8 1 1 0 0 1
pinnumber=3
T 46800 50350 5 10 0 0 0 6 1
pinseq=3
T 46800 50350 5 10 0 1 0 6 1
pintype=pas
}
P 46600 50100 46900 50100 1 0 1
{
T 46540 50100 9 8 1 1 0 7 1
pinlabel=4B
T 46650 50150 5 8 1 1 0 0 1
pinnumber=4
T 46800 50150 5 10 0 0 0 6 1
pinseq=4
T 46800 50150 5 10 0 1 0 6 1
pintype=pas
}
P 46600 49900 46900 49900 1 0 1
{
T 46650 49950 5 8 1 1 0 0 1
pinnumber=5
T 46800 49950 5 10 0 0 0 6 1
pinseq=5
T 46540 49900 9 8 1 1 0 7 1
pinlabel=5B
T 46800 49950 5 10 0 1 0 6 1
pintype=pas
}
P 46600 49700 46900 49700 1 0 1
{
T 46650 49750 5 8 1 1 0 0 1
pinnumber=6
T 46800 49750 5 10 0 0 0 6 1
pinseq=6
T 46540 49700 9 8 1 1 0 7 1
pinlabel=6B
T 46800 49750 5 10 0 1 0 6 1
pintype=pas
}
P 46600 49500 46900 49500 1 0 1
{
T 46650 49550 5 8 1 1 0 0 1
pinnumber=7
T 46800 49550 5 10 0 0 0 6 1
pinseq=7
T 46540 49500 9 8 1 1 0 7 1
pinlabel=7B
T 46800 49550 5 10 0 1 0 6 1
pintype=pas
}
P 46600 49300 46900 49300 1 0 1
{
T 46650 49350 5 8 1 1 0 0 1
pinnumber=8
T 46800 49350 5 10 0 0 0 6 1
pinseq=8
T 46540 49300 9 8 1 1 0 7 1
pinlabel=E
T 46800 49350 5 10 0 1 0 6 1
pintype=pas
}
P 44900 49900 45200 49900 1 0 0
{
T 45150 49950 5 8 1 1 0 6 1
pinnumber=12
T 45100 49950 5 8 0 0 0 6 1
pinseq=12
T 45260 49900 9 8 1 1 0 1 1
pinlabel=5C
T 45100 49950 5 8 0 1 0 6 1
pintype=pas
}
P 44900 49700 45200 49700 1 0 0
{
T 45150 49750 5 8 1 1 0 6 1
pinnumber=11
T 45100 49750 5 8 0 0 0 6 1
pinseq=11
T 45260 49700 9 8 1 1 0 1 1
pinlabel=6C
T 45100 49750 5 8 0 1 0 6 1
pintype=pas
}
P 44900 49500 45200 49500 1 0 0
{
T 45150 49550 5 8 1 1 0 6 1
pinnumber=10
T 45100 49550 5 8 0 0 0 6 1
pinseq=10
T 45260 49500 9 8 1 1 0 1 1
pinlabel=7C
T 45100 49550 5 8 0 1 0 6 1
pintype=pas
}
P 44900 49300 45200 49300 1 0 0
{
T 45150 49350 5 8 1 1 0 6 1
pinnumber=9
T 45100 49350 5 8 0 0 0 6 1
pinseq=9
T 45260 49300 9 8 1 1 0 1 1
pinlabel=COM
T 45100 49350 5 8 0 1 0 6 1
pintype=pas
}
B 45200 49100 1400 1800 3 0 0 0 -1 -1 0 -1 -1 -1 -1 -1
T 45200 50950 8 10 0 1 0 0 1
refdes=U?
L 46100 50350 46100 49850 3 0 0 0 -1 -1
L 46100 49850 45700 50100 3 0 0 0 -1 -1
L 45700 50100 46100 50350 3 0 0 0 -1 -1
V 45675 50100 25 3 0 0 0 -1 -1 0 -1 -1 -1 -1 -1
L 46100 50100 46200 50100 3 0 0 0 -1 -1
L 45650 50100 45550 50100 3 0 0 0 -1 -1
]
{
T 46550 51440 5 10 0 0 0 6 1
device=ULN2003
T 46550 51240 5 10 0 0 0 6 1
footprint=DIP16
T 45200 51000 5 10 1 1 0 0 1
refdes=U2
}
C 44400 49300 1 0 1 EMBEDDEDvcc-1.sym
[
P 44200 49300 44200 49500 1 0 0
{
T 44150 49350 5 6 0 1 0 6 1
pinnumber=1
T 44150 49350 5 6 0 0 0 6 1
pinseq=1
T 44150 49350 5 6 0 1 0 6 1
pinlabel=1
T 44150 49350 5 6 0 1 0 6 1
pintype=pwr
}
L 44350 49500 44050 49500 3 0 0 0 -1 -1
T 44325 49550 9 8 1 0 0 6 1
Vcc
T 43950 49500 8 10 0 0 0 6 1
net=Vcc:1
]
N 44200 49300 44900 49300 4
C 46800 49000 1 0 0 EMBEDDEDgnd-1.sym
[
P 46900 49100 46900 49300 1 0 1
{
T 46958 49161 5 4 0 1 0 0 1
pinnumber=1
T 46958 49161 5 4 0 0 0 0 1
pinseq=1
T 46958 49161 5 4 0 1 0 0 1
pinlabel=1
T 46958 49161 5 4 0 1 0 0 1
pintype=pwr
}
L 46800 49100 47000 49100 3 0 0 0 -1 -1
L 46855 49050 46945 49050 3 0 0 0 -1 -1
L 46880 49010 46920 49010 3 0 0 0 -1 -1
T 47100 49050 8 10 0 0 0 0 1
net=GND:1
]
C 43600 51000 1 0 0 EMBEDDEDresistor-2.sym
[
P 44500 51100 44350 51100 1 0 0
{
T 44400 51150 5 8 0 1 0 0 1
pinnumber=2
T 44400 51150 5 8 0 0 0 0 1
pinseq=2
T 44400 51150 5 8 0 1 0 0 1
pinlabel=2
T 44400 51150 5 8 0 1 0 0 1
pintype=pas
}
P 43600 51100 43750 51100 1 0 0
{
T 43700 51150 5 8 0 1 0 0 1
pinnumber=1
T 43700 51150 5 8 0 0 0 0 1
pinseq=1
T 43700 51150 5 8 0 1 0 0 1
pinlabel=1
T 43700 51150 5 8 0 1 0 0 1
pintype=pas
}
B 43750 51000 600 200 3 0 0 0 -1 -1 0 -1 -1 -1 -1 -1
T 44000 51350 5 10 0 0 0 0 1
device=RESISTOR
T 43800 51300 8 10 0 1 0 0 1
refdes=R?
]
{
T 44000 51350 5 10 0 0 0 0 1
device=RESISTOR
T 43700 51150 5 10 1 1 0 6 1
refdes=R10
T 44400 51150 5 10 1 1 0 0 1
value=n.c.
T 43600 51000 5 10 0 0 0 0 1
footprint=r250
}
C 44600 51100 1 0 0 EMBEDDEDvcc-1.sym
[
P 44800 51100 44800 51300 1 0 0
{
T 44850 51150 5 6 0 1 0 0 1
pinnumber=1
T 44850 51150 5 6 0 0 0 0 1
pinseq=1
T 44850 51150 5 6 0 1 0 0 1
pinlabel=1
T 44850 51150 5 6 0 1 0 0 1
pintype=pwr
}
L 44650 51300 44950 51300 3 0 0 0 -1 -1
T 44675 51350 9 8 1 0 0 0 1
Vcc
T 45050 51300 8 10 0 0 0 0 1
net=Vcc:1
]
N 44500 51100 44800 51100 4
N 43600 51100 43300 51100 4
N 43300 51100 43300 50700 4
C 49000 48000 1 0 0 EMBEDDEDconnector2-2.sym
[
P 49000 48800 49200 48800 1 0 0
{
T 49200 48850 5 8 0 1 0 6 1
pinnumber=1
T 49200 48750 5 8 0 1 0 8 1
pinseq=1
T 49350 48800 9 8 1 1 0 0 1
pinlabel=1
T 49350 48800 5 8 0 1 0 2 1
pintype=pas
}
V 49250 48800 50 6 0 0 0 -1 -1 0 -1 -1 -1 -1 -1
P 49000 48400 49200 48400 1 0 0
{
T 49200 48450 5 8 0 1 0 6 1
pinnumber=2
T 49200 48350 5 8 0 1 0 8 1
pinseq=2
T 49350 48400 9 8 1 1 0 0 1
pinlabel=2
T 49350 48400 5 8 0 1 0 2 1
pintype=pas
}
V 49250 48400 50 6 0 0 0 -1 -1 0 -1 -1 -1 -1 -1
B 49300 48000 400 1200 3 0 0 0 -1 -1 0 -1 -1 -1 -1 -1
T 49700 49300 8 10 0 1 0 6 1
refdes=CONN?
T 49300 49250 5 10 0 0 0 0 1
device=CONNECTOR_2
T 49300 49450 5 10 0 0 0 0 1
footprint=SIP2N
T 49300 49650 5 10 0 0 0 0 1
author=Leon Kos
T 49300 49850 5 10 0 0 0 0 1
description=generic connector
T 49300 50050 5 10 0 0 0 0 1
numslots=0
]
{
T 49700 49300 5 10 1 1 0 6 1
refdes=J3
T 49300 49250 5 10 0 0 0 0 1
device=CONNECTOR_2
T 49300 49450 5 10 0 0 0 0 1
footprint=JUMPER2
}
C 48900 48100 1 0 0 EMBEDDEDgnd-1.sym
[
P 49000 48200 49000 48400 1 0 1
{
T 49058 48261 5 4 0 1 0 0 1
pinnumber=1
T 49058 48261 5 4 0 0 0 0 1
pinseq=1
T 49058 48261 5 4 0 1 0 0 1
pinlabel=1
T 49058 48261 5 4 0 1 0 0 1
pintype=pwr
}
L 48900 48200 49100 48200 3 0 0 0 -1 -1
L 48955 48150 49045 48150 3 0 0 0 -1 -1
L 48980 48110 49020 48110 3 0 0 0 -1 -1
T 49200 48150 8 10 0 0 0 0 1
net=GND:1
]
N 51600 46800 51600 47500 4
N 51600 47500 48600 47500 4
N 48600 47500 48600 48800 4
N 48600 48800 49000 48800 4
